Type	Priority	Fallthrough	ActorRace	TargetRace	Text	Conditional	Success	Notes
								
//Self Actions								
Rest		0.7	Bat		[ActorName] slept with [ActorHis] wings wrapped loosely around [ActorHim]			
Shower		0.6	Bat		[ActorName] takes a relaxing shower, making sure to take time to clean up [ActorHis] tail.			
Shower  		0.6	Bat		[ActorName] takes [ActorHis] time scrubbing between [ActorHis] wings.			
Scream		0.5	Bat		"Hey don't you dare keep me inside you!" yelled [ActorName]	[ActorWillingPrey] == false		
Orgasm		0.5	Bat		[ActorName] cries out in orgasmic pleasure, fluid gushing out of [ActorHis] [Pussy], some of which soaks into [ActorHis] tail.	[ActorNude] && [ActorHasVagina]		
Orgasm  		0.5	Bat		[ActorName] grunts softly, panting out in pleasure while [ActorHe] finally reaches climax, spraying cum from [ActorHis] [Dick] making a mess all over their fur. 	[ActorNude] && [ActorHasDick]		
								
								
//Interactions								
Meet			Bat	Bat	[ActorName] introduced themselves to [TargetName]. "Oh hey there, another fellow bat! Nice to meet ya."			
Meet			Demi-Human	Demi-Human	[ActorName] introduced themselves to [TargetName]. "Oh, another interesting face, I hope we get the chance to talk more."			
Talk	1	0.8	Bat	Bat	[ActorName] talked with [TargetName] about how their wings make certain clothing uncomfortable to wear.		Yes	
Talk	1	0.8	Bat	Bat	[ActorName] talked with [TargetName] about how most bats don't fly anywhere, because flapping wings is more tiring than just walking.			
Talk	1	0.8	Bat	Bat	[ActorName] talked with [TargetName] about how some bats drink blood, and others eat fruit.			
								
Flirt		0.6	Bat		[ActorName] flirted with [TargetName], giving a quick spin to show off [ActorHis] underwear before giving a grin and little wink.	[ActorInUnderwear]	Yes	
Flirt		0.7	Bat		[ActorName] flirted with [TargetName], enjoying the attention on [ActorHis] nude body, but tempted to use [ActorHis] [ActorCustom-Wing Color] wings to cover themselves.	[ActorNude]	Yes	
Hug		0.5	Bat		[ActorName] hugged [TargetName] letting [ActorHis] [ActorCustom-Wing Color] wings wrap around [TargetHim].		Yes	
Hug	1	0.4	Bat	Bat	[ActorName] hugged [TargetName], wrapping [ActorHis] [ActorCustom-Wing Color] wings around [TargetName] while [TargetHe] draws his own wings in toward [TargetHis] chest.		Yes	
PreyBeg		0.75	Bat		"Oh gosh, come on, please let me go [TargetName]! My wings are already starting to have holes in them!" begged [ActorName] while [TargetName] seems to consider what they said.		Yes	
SpitUpPrey		0.5		Bat	[ActorName] voluntarily spits [TargetName] back out, leaving them a little messy but still alive, but [TargetName]'s wings look a little singed. [TargetName] partially forgives them.	[TargetFriendshipTowardActor] < -.19f && [ActorIsBeingEaten] == false		
SpitUpPrey		0.5		Bat	[ActorName] voluntarily spits [TargetName] back out, leaving them a little messy but still alive but [TargetName]'s wings look a little singed.	[TargetFriendshipTowardActor] >= -.19f && [ActorIsBeingEaten] == false		
Compliment		0.8		Bat	[ActorName] tells [TargetName] [TargetHis] fangs are very well kept.		Yes	
Insult		0.85		Bat	[ActorName] ridicules [TargetName]'s snout.			
UnexpectedDigestion		0.75	Bat		"Hey, [TargetName], It's getting a bit hotter in here...and I'm starting to feel a bit tingly, you're not trying to digest me are you?"                        	s.Actor.Needs.Hunger > .6f		
PreyWillingNap		0.6		Bat	 [ActorName] was forced to have [ActorHis] [TargetCustom-Wing Color] wings wrapped around [ActorHis] body, though at least this made [Actorhim] cozy while [ActorHe] napped inside [TargetName].			
VoreHunger		0.6		Bat	"Oh my stomach was growling so much, and you just looked like such a delicious bat snack."			
								
//Vore Process Related								
VoreCleanliness	1			Bat	Your fur is all tangled and not very well groomed. You could've at least groomed a little before I ate you!	s.Target.Needs.Cleanliness > .7f		
InStomachEndo				Bat	[TargetName] Could be seen pressing [ActorHis] wings out against the inside of [ActorName]'s swollen gut.			
InStomachEndo				Bat	[TargetName] feels the slick, slimy walls of [ActorName]'s stomach, though it doesn't seem [ActorHe] wants to digest [TargetHim].			
InStomachEndo				Bat	[TargetName] still seems to be intact, though a little damp [ActorName] seems happy to just keep [TargetName] inside [ActorHis] gut.			
InStomachEndo				Bat	[TargetName]'s wings are all folded and cramped against [TargetHim], while [TargetHe] hangs off of [ActorName]'s waistline.			
InStomachEndo				Bat	[ActorName] puffs softly while [ActorHe] feels [TargetName] bulging out [ActorHis] middle.	[TargetWillingPrey]		
InStomachEndo				Bat	[ActorName]'s warm stomach walls close in and squeeze on [TargetName]'s body, dampening [TargetHis] fur with the slick fluids coating the walls.	[TargetWillingPrey]		
InStomachEndo				Bat	[ActorName] belches, squeezing some air from [ActorHis] stomach, though [ActorHe] quickly gulps down more air so [TargetName] doesn't suffer inside [ActorHim].			
InStomachEndo				Bat	[TargetName] can hear [ActorName]'s steady heartbeat around [TargetHim] while his wings and tail feel all cramped against [ActorHim].			
InStomachEndo				Bat	[TargetName] seems to be enjoying the sensations of being within [ActorName]'s warm belly, squeezed so tightly with the form of [TargetHis] wings visible on [ActorHis] hips.			
InStomachEndo				Bat	[TargetName] finds the warm darkness of [ActorName]'s stomach to be extremely relaxing, even if [TargetHis] wings can hardly spread out.	[TargetWillingPrey]		
InStomach	4			Bat	[TargetName] still feels mostly solid while [TargetHis] wings are cramped against the bat inside [ActorName].	s.Target.Health > Constants.HealthMax * .6f		
InStomach	4			Bat	[ActorName] feels a healthy [TargetName] shifting within [ActorHis] belly, wings pressed out against the bulge the bat made.	s.Target.Health > Constants.HealthMax * .6f		
InStomach	4			Bat	[TargetName] is still much more solid than not, [ActorName]'s acids not having done much to turn the bat into mush yet.	s.Target.Health > Constants.HealthMax * .6f		
InStomach	4			Bat	[TargetName] hears [ActorName]'s stomach growl loudly around [TargetHim] as it reacts to the presence of [ActorName]'s latest meal.	s.Target.Health > Constants.HealthMax * .6f		
InStomach	4			Bat	[ActorName]'s stomach leaks viscous, oily fluid that tingles at the touch, readily trying to process its latest meal.	s.Target.Health > Constants.HealthMax * .6f		
InStomach	4			Bat	[TargetName] can already feel that there are goopy holes in [TargetHis] wings as the acids in [ActorName]'s stomach work to churn the bat away.	s.Target.Health > Constants.HealthMax * .6f		
InStomach	4			Bat	[TargetName] can feel the warm, slimy walls of [ActorName]'s stomach pressing and squeezing around their form tightly every time their wings try to stretch.	s.Target.Health > Constants.HealthMax * .6f		
InStomach	4			Bat	[ActorName] enjoys the feeling of a live and squirming bat within [ActorHis] belly.	s.Target.Health > Constants.HealthMax * .6f		
InStomach	3			Bat	[TargetName] starts to notice that the holes eaten through [TargetHis] wings are getting larger, and body a bit softer inside [ActorName].	s.Target.Health > Constants.HealthMax * .2f		
InStomach	3			Bat	[TargetName] is starting to find they're a bit more liquid than solid at this point, wings in molten tatters dipping beneath [ActorName]'s acids.	s.Target.Health > Constants.HealthMax * .2f		
InStomach	3			Bat	[ActorName] definitely feels [TargetName]'s body growing soft and goopier, weakening within [ActorHis] belly.	s.Target.Health > Constants.HealthMax * .2f		
InStomach	3			Bat	[TargetName] struggles to stay conscious with the acrid air stinging [TargetHis] nose, wings melted and tattered enough to prevent him from flying were [TargetHe] not submerged in [ActorName]'s acids.	s.Target.Health > Constants.HealthMax * .2f		
InStomach	3			Bat	[TargetName] feels [TargetHis] skin tingling and softening body growing softer as [ActorName]'s stomach acids begin dissolving [TargetHim].	s.Target.Health > Constants.HealthMax * .2f		
InStomach	3			Bat	[ActorName]'s stomach aggressively churns [ActorHis] meal and clamps around [TargetName]'s body, collapsing [TargetHis] wings, indifferent to the fact that the food trapped within it is alive.	s.Target.Health > Constants.HealthMax * .2f		
InStomach	3			Bat	[ActorName]'s belly emits a long groan, and growl, as it kicks into gear, eager to turn the bat, [TargetName], into mush.	s.Target.Health > Constants.HealthMax * .2f		
InStomach	3			Bat	[TargetName] is getting a first-hand experience of what it's like to be lunch as [ActorName]'s stomach works to digest [TargetHim], mixing the bat into a tumble of acids, slime, wings, and fur.	s.Target.Health > Constants.HealthMax * .2f		
InStomach	3			Bat	[ActorName] blushes slightly as they listen to their stomach work to digest [TargetName] into a bat snack, feeling a little jealous of [TargetHim].	s.Target.Health > Constants.HealthMax * .2f && s.Actor.Personality.Voraphilia > .5f && s.Actor.Personality.PreyWillingness > .7f && [ActorIsBeingEaten] == false		
InStomach	2			Bat	[TargetName] feels consciousness beginning to leave them as the bat struggles to stay awake. If they don't get out of [ActorName] soon, they probably never will.	s.Target.Health > 0		
InStomach	2			Bat	[ActorName] feels [TargetName]'s movements slow, and body hardly solid at all, starting to realize that [TargetHeIs] running out of time.	s.Target.Health > 0		
InStomach	2			Bat	[TargetName] realizes their body is all too goopy, and hardly holding together as [ActorName]'s stomach is about to lay permanent claim to their flesh.	s.Target.Health > 0		
InStomach	2			Bat	[ActorName]'s stomach gurgles noisily while it churns [TargetName] vigorously within its confines, dissolving the bat's wings into soup while growing more and more eager to begin breaking down [ActorName]'s weakening meal into nutritious mush.	s.Target.Health > 0		
InStomach	2			Bat	The constant churning and groaning of [ActorName]'s stomach has taken its toll on [TargetName] having turned [TargetHis] beautiful [TargetCustom-Wing Color] wings into hole-filled melted tatters, and it won't be much longer before it overcomes [TargetHim] entirely.	s.Target.Health > 0		
InStomach	2			Bat	[TargetName]'s fur is coming off in patches, melting away from the acids and constant churning of [ActorName]'s stomach laying claim to the bat's body.	s.Target.Health > 0		
InStomach	2			Bat	[ActorName]'s stomach is having its way with [TargetName], whose resistance is quickly fading along with the bat's body.	s.Target.Health > 0 && [TargetWillingPrey] == false		
InStomach	1			Bat	[TargetName]'s still body is slowly continuing to dissolve inside of [ActorName]'s active stomach.	s.Target.Health > Constants.EndHealth / 2		
InStomach	1			Bat	[ActorName] feels [ActorHis] belly getting smaller and knows that it's working on turning [TargetName] into more pudge on [ActorHis] middle.	s.Target.Health > Constants.EndHealth / 2		
InStomach	1			Bat	[TargetName] has melted like ice cream in [ActorName]'s greedy stomach, hardly any evidence that there was a bat inside there in the first place.	s.Target.Health > Constants.EndHealth / 2		
InStomach	1			Bat	[ActorName]'s stomach gurgles and groans as it works on making [TargetName] into a permanent feature on [ActorName]'s waistline.	s.Target.Health > Constants.EndHealth / 2		
InStomach	1			Bat	[ActorName]'s belly sloshes and gurgles noisily as it works to digest the softening remains of [TargetName], all evidence of a bat vanishing within the noisy gut.	s.Target.Health > Constants.EndHealth / 2		
InStomach	1			Bat	[TargetName] is now truly just food to fuel [ActorName]'s hunger, while [ActorHis] stomach works to break down and digest what's left of the poor bat.	s.Target.Health > Constants.EndHealth / 2		
InStomach	0			Bat	The final parts of [TargetName]'s liquid body are being absorbed by [ActorName]'s growling stomach.			
InStomach	0			Bat	[ActorName]'s belly is now back down to almost its normal size, very little evidence of [TargetName]'s existence is left.			
InStomach	0			Bat	[TargetName] is now almost completely a permanent part of [ActorName]'s body, the bat's former form shrinking on [ActorName]'s middle.			
InStomach	0			Bat	The small amount of mush that remains of [TargetName]'s mostly-digested body is being processed by [ActorName]'s stomach.			
InStomach	0			Bat	[ActorName]'s belly emits a final gurgling sounds as it busily works to finish processing what's left of the bat inside it.			
InStomach	0			Bat	What's left of [TargetName] within [ActorName]'s churning gut is little more than a mushy jumble of former bat.			
InWombEndo				Bat	[TargetName] was squished and squeezed inside [ActorName]'s [Pussy].			
InWombEndo				Bat	[ActorName] feels a healthy and solid [TargetName] moving within [ActorHis] womb.			
InWombEndo				Bat	[TargetName] finds it surprisingly easy to relax comfortably with [ActorName]'s womb, even with [TargetHis] wings clinging to the bat's body, the warmth soothing [TargetHim].			
InWombEndo				Bat	[TargetName] doesn't seem to be melting during their stay inside [ActorName] and is comforted by the warmth.			
InWombEndo				Bat	[ActorName] smiles as they feel [TargetName]'s movements deep inside of [ActorHis] [Pussy], squished and wrapped up like a bat burrito.			
InWombEndo				Bat	[ActorName]'s womb holds [TargetName] securely within its warm confines, almost not wanting to let [TargetHim] go, but making no attempt to turn [TargetHim] into another orgasm.			
InWombEndo				Bat	[TargetName] feels very warm and safe within [ActorName]'s womb, even if a bit cramped with [TargetHis] wings not finding room to spread.	[TargetWillingPrey]		
InWombEndo				Bat	[TargetName] is flooded with happiness while his body is literally flooded with fem, though it didn't seem to be melting the bat while resting inside of [ActorName]. [TargetHeCapitalized] seemed safe and secure within [TargetHis] lover's womb.	[TargetWillingPrey] && [TargetRomanticTowardActor] > .7f		
InWomb	4			Bat	[TargetName] can feel [ActorName]'s womb getting a bit more active, leaking potent fluids over the bat's fur.	s.Target.Health > Constants.HealthMax * .6f		
InWomb	4			Bat	[TargetName] hasn't seemed to melt too much just yet, as [ActorName]'s [Pussy] hasn't kicked into gear quite yet, though those fluids did tingle ominously.	s.Target.Health > Constants.HealthMax * .6f		
InWomb	4			Bat	[TargetName] feels the interior of [ActorName]'s womb getting steadily hotter, small holes were starting to eat their way through [TargetHis] wings.	s.Target.Health > Constants.HealthMax * .6f		
InWomb	4			Bat	[ActorName] feels the healthy bat, [TargetName], moving about within the depths of [ActorHis] [Pussy] while [TargetHe] was soaked with [ActorHis] fluids.	s.Target.Health > Constants.HealthMax * .6f		
InWomb	4			Bat	[ActorName]'s womb is slowly getting more active as it tries to melt its occupant, [TargetName].	s.Target.Health > Constants.HealthMax * .6f		
InWomb	3			Bat	[ActorName] feels [TargetName] starting to soften a bit within [ActorHis] womb as fluids continue to leak over the bat's body.	s.Target.Health > Constants.HealthMax * .2f		
InWomb	3			Bat	[TargetName] notices [ActorName]'s womb beginning to get quite warm as [TargetHe] notices the goopy holes in [TargetHis] wings getting larger.	s.Target.Health > Constants.HealthMax * .2f		
InWomb	3			Bat	[ActorName] feels small parts of [TargetName] starting to leak out [ActorHis] moist passage.	s.Target.Health > Constants.HealthMax * .2f		
InWomb	3			Bat	The hot walls of [ActorName]'s womb contract tightly around [TargetName]'s softening form, causing the bat to groan while the active womb melts the thin membranes of [TargetHis] wings.	s.Target.Health > Constants.HealthMax * .2f		
InWomb	3			Bat	The heat and potent feminine scent within the confines of [ActorName]'s womb is making [TargetName] feel rather lightheaded as the bat's body starts to feel softer.	s.Target.Health > Constants.HealthMax * .2f		
InWomb	2			Bat	Melted parts of [TargetName] prematurely leak from [ActorName]'s moist slit, lubricating the tunnel.	s.Target.Health > 0		
InWomb	2			Bat	[ActorName] couldn't help but trace along [ActorHis] slit, feeling former [TargetName] moistening [ActorHis] slit while inside the bat's movements slow. [TargetHeIsCapitalized] running out of time.	s.Target.Health > 0		
InWomb	2			Bat	[TargetName] realizes their body won't hold out much longer, the bat's wings mostly melted and full of holes. If [TargetName] doesn't get out soon, [ActorName]'s womb will melt [TargetHim] into just another orgasm.	s.Target.Health > 0		
InWomb	2			Bat	[TargetName]'s fur is beginning to melt off, bits of former bat leaking back out [ActorName]'s [Pussy] more and more by the second. 	s.Target.Health > 0		
InWomb	1			Bat	[TargetName]'s mostly-liquid body is having much difficulty staying in one piece, parts of [TargetHis] former form moistening [ActorName]'s [Pussy] already.	s.Target.Health > Constants.EndHealth / 2		
InWomb	1			Bat	[TargetName] is doomed to be more of [ActorName]'s love juices, former bat's form starting to even and round out along [ActorHis] belly.	s.Target.Health > Constants.EndHealth / 2		
InWomb	1			Bat	[ActorName]'s womb is busy liquefying what's left of [TargetName]'s softening remains into nothing more but [ActorName]'s next orgasm.	s.Target.Health > Constants.EndHealth / 2		
InWomb	0			Bat	All evidence of [TargetName]'s existence is snuffed out inside [ActorName]'s womb, as the poor bat melts into liquid pleasure.			
InWomb	0			Bat	What little remains of [TargetName] is quickly melted into nothing more but a pool of musky fluid, smelling of sex while bits of what's left prematurely leak from between [ActorName]'s thighs.			
InBallsEndo				Bat	[TargetName]'s wings forced against the walls of the tight sac stretch out [ActorName]'s hanging balls.			
InBallsEndo				Bat	[ActorName] grins as [ActorHe]  the weight of a healthy bat, [TargetName], hanging within [ActorHis] sack.			
InBallsEndo				Bat	[TargetName] is still in one piece inside those hanging orbs, as [ActorName] has no intent to melt them. Yet.			
InBallsEndo				Bat	[ActorName] enjoys the feeling of [TargetName] cramped tightly inside [ActorHis] [Balls].			
InBalls	4			Bat	[TargetName] can feel the steamy [Balls] starting to get a bit more active, smell of cum filling the bat's nostrils.	s.Target.Health > Constants.HealthMax * .6f		
InBalls	4			Bat	[ActorName] grunts softly as [ActorHe] feels [TargetName] move about inside [ActorHis] [Balls], cum starting to leak out over the trapped bat.	s.Target.Health > Constants.HealthMax * .6f		
InBalls	4			Bat	[TargetName] squirms about within the tight confines of [ActorName]'s [Balls] while cum sticks to [TargetHis] fur.	s.Target.Health > Constants.HealthMax * .6f		
InBalls	3			Bat	[TargetName]'s skin is starting to tingle within [ActorName]'s [Balls], and [TargetHis] wings seem to be getting softer, thin membranes already forming goopy holes.	s.Target.Health > Constants.HealthMax * .2f		
InBalls	3			Bat	[TargetName] is beginning to feel lightheaded inside of [ActorName]'s [Balls] from the intoxicating scent of [ActorHis] jizz, while the sticky stuff works to melt the bat into part of the churning pool.	s.Target.Health > Constants.HealthMax * .2f		
InBalls	3			Bat	[ActorName]'s balls are beginning to fill with cum around [TargetName], coating [TargetHis] fur with the hot, sticky fluid.	s.Target.Health > Constants.HealthMax * .2f		
InBalls	3			Bat	[TargetName] is being tightly squeezed within [ActorName]'s bloated and pulsating sack. [TargetHis] wings are pressed tightly to the bat's body while they began to be the first things to melt.	s.Target.Health > Constants.HealthMax * .2f		
InBalls	2			Bat	[TargetName] can't catch a breath of fresh air that isn't laden with the strong, sweet scent of [ActorName]'s cum. Any longer and the bat will end up as nothing more than [ActorName]'s next load.	s.Target.Health > 0		
InBalls	2			Bat	[TargetName] feels like the rising pool of spunk surrounding [TargetHim] is getting a headstart at breaking [TargetHim] down. His wings are already goopy and full of large holes as it is!	s.Target.Health > 0		
InBalls	2			Bat	[ActorName] can feel [TargetName] struggling to keep [TargetHis] head 'above water', and knows it won't be much longer before [ActorHis] balls turn the bat into spunk!	s.Target.Health > 0		
InBalls	2			Bat	[TargetName] feels [TargetHis] mind clouding as the hot pool of cum begins to overwhelm [TargetHim]. Cum seemed to stick to every surface it touched, threatening to turn the bat into more of it.	s.Target.Health > 0		
InBalls	1			Bat	[TargetName] lacks the strength to keep himself from sinking further, bulging form in the sac starting to look more liquid than solid.	s.Target.Health > Constants.EndHealth / 2		
InBalls	1			Bat	Whatever's left of [TargetName] is busy melting into nothing but more of [ActorName]'s spunk, no more evidence a bat had ever been there.	s.Target.Health > Constants.EndHealth / 2		
InBalls	1			Bat	[ActorName] feels [ActorHis] bloated [Balls] slowly shrinking as they clamp around what's left of [TargetName] who was adding to [ActorHis] next load.	s.Target.Health > Constants.EndHealth / 2		
InBalls	1			Bat	[TargetName] sinks below the pool of sticky spunk filling [ActorName]'s [Balls], turning into more of it.	s.Target.Health > Constants.EndHealth / 2		
InBalls	0			Bat	The final solid bits of [TargetName] that identified [TargetHim] as a former bat are dissolving away in a sea of jizz.			
InBalls	0			Bat	[ActorName]'s balls look more swollen than normal, it's like [TargetName] was never there to begin with. The bat is just cum now.			
InBalls	0			Bat	[ActorName]'s ballsack sloshes with an extra large load, thanks to [TargetName]'s contribution			
InBalls	0			Bat	[TargetName]'s is now nearly indistinguishable from any other load of jizz that has filled [ActorName]'s [Balls].			
InBalls	0			Bat	Most of [TargetName] has been dissolved within [ActorName]'s swollen [Balls], it won't be long before the former bat is ready to be released from [ActorName]'s [Dick] as a torrent of hot cum.	[DisposalCockEnabled]		
InBalls	0			Bat	[ActorName] feels [ActorHis] [Dick] getting hot and stiff at the thought that [ActorHe] will soon be squirting the melted remains  of a former bat out of [ActorHis] shaft.	[DisposalCockEnabled] && s.Actor.Personality.Voraphilia > .5f		
InAnusEndo					[TargetName] peacefully rests deep inside [ActorName]'s bowels.			
InAnusEndo					[ActorName] enjoys the sensation of [TargetName] moving around within [ActorHis] [Anus].			
InAnusEndo					[TargetName] is still in good health, [ActorName] has no intent to digest them.			
InAnusEndo					[TargetName] finds the sensations of being squeezed within [ActorName]'s warm, tight [Anus] to be oddly soothing, despite the smell.			
InAnus	4				[TargetName] still feels great inside [ActorName]'s bowels.	s.Target.Health > Constants.HealthMax * .6f		
InAnus	4				[ActorName] can feel the healthy [TargetName] squirming about deep inside [ActorHis] [Anus].	s.Target.Health > Constants.HealthMax * .6f		
InAnus	4				[ActorName]'s bowels contract around [ActorHis] lively prey.	s.Target.Health > Constants.HealthMax * .6f		
InAnus	4				[TargetName] is securely contained deep within [ActorName]'s butt.	s.Target.Health > Constants.HealthMax * .6f		
InAnus	3				[TargetName] notices [TargetHis] skin starting to tingle as the hot, slimy walls of [ActorName]'s bowels squeeze tightly around [TargetHim].	s.Target.Health > Constants.HealthMax * .2f		
InAnus	3				The heat and unpleasant smell within [ActorName]'s [Anus] is making [TargetName] feel rather lightheaded.	s.Target.Health > Constants.HealthMax * .2f		
InAnus	3				The tight confines of [ActorName]'s ass are getting hotter and rather slimy around [TargetName].	s.Target.Health > Constants.HealthMax * .2f		
InAnus	3				[ActorName] feels [TargetName] weakening deep inside of [ActorName]'s bowels.	s.Target.Health > Constants.HealthMax * .2f		
InAnus	3				[ActorName]'s anal walls contract energetically around [ActorHis] wriggling ass snack.	s.Target.Health > Constants.HealthMax * .2f		
InAnus	2				[TargetName]'s consciousness is fading. If [TargetHe] doesn't get out of [ActorName]'s bowels soon, [TargetHe] will end up being deposited out of [ActorName]'s [Anus] as a log of smelly waste.	s.Target.Health > 0 && [DisposalEnabled]		
InAnus	2				[TargetName]'s consciousness is fading. If [TargetHe] doesn't get out of [ActorName]'s bowels soon, [TargetHe] will end up being completely digested and absorbed by [ActorHim].	s.Target.Health > 0 && [DisposalEnabled] == false		
InAnus	2				[ActorName] savors the weakening movements of [TargetName] within the depths of [ActorHis] [Anus], knowing that [ActorHis] ass snack will soon be being broken down into nutrients.	s.Target.Health > 0		
InAnus	2				The hot, foul air and acidic slime within [ActorName]'s bowels is taking its toll on [TargetName]. It won't be long before [ActorName]'s [Anus] claims [TargetHis] body.	s.Target.Health > 0		
InAnus	1				[TargetName]'s remains are being slowly broken down and absorbed within [ActorName]'s bowels.	s.Target.Health > Constants.EndHealth / 2		
InAnus	1				[ActorName]'s [Anus] is vigorously working to process [TargetName]'s still body into useful nutrients.	s.Target.Health > Constants.EndHealth / 2		
InAnus	1				[ActorName] smiles as [ActorHe] listens to [ActorHis] bowels process [TargetName] into something useful for [ActorName]'s body.	s.Target.Health > Constants.EndHealth / 2		
InAnus	0				[ActorName]'s bowels are compacting [TargetName]'s mostly digested remains into a mass of waste matter while absorbing the last bits of nutritional value from them.	[DisposalEnabled]		
InAnus	0				[ActorName] knows that it won't be much longer before they'll be letting [TargetName] back out of [ActorHis] [Anus] in a form that looks and smells a lot worse than when [TargetHe] went in.	[DisposalEnabled]		
InAnus	0				What is left of [TargetName] deep inside of [ActorName]'s backdoor is looking a lot browner than before.	[DisposalEnabled]		
InAnus	0				[ActorName]'s bowels are still hard at work extracting what little value is left in [TargetName]'s remains.	[DisposalEnabled]		
InAnus	0				[ActorName]'s bowels are absorbing the mostly digested remains of [TargetName], not much of [TargetHim] is left.	[DisposalEnabled] == false		
InAnus	0				The mush contained within the smelly depths of [ActorName]'s [Anus] that used to be [TargetName] is almost done being digested.	[DisposalEnabled] == false		
InAnus	0				[TargetName] will soon be nothing more than a part of [ActorName]'s ass.	[DisposalEnabled] == false		
OralBegin				Bat	[ActorName] grabs [TargetName] and lifts them into the air, preparing to eat them "Oh, you look like a tasty bat, I think I'll just help myself."			
OralBegin				Bat	[ActorName] grabs [TargetName], pinning [ActorHis] wings to [ActorHis] sides, and lifts them into the air, toward [TargetHis] gaping jaws, "Oh I just can't help myself around such a delicious looking bat!"			
OralBegin				Bat	[ActorName] grabs [TargetName] by the sides, collapsing their wings and pinning them to [TargetHis] sides. Soon, [ActorHe] lifts [TargetName] into the air, over [ActorHis] gaping jaws "C'mere you tasty thing!"			
OralBegin				Bat	[ActorName] grabs [TargetName] and holds them close, leaving [TargetName] unable to spread [TargetHis] wings, then drags a drooling tongue across their cheek "Mmm, well why aren't you a delicious bat?"			
OralBegin				Bat	[ActorName] pulls [TargetName], folding their wings around their own body restrictively. Drool ominously drips from [ActorHis] cavernous maw while hot breath washes over [Targetname]'s face.			
OralBegin				Bat	[ActorName]'s stomach growls hungrily as [ActorHe] grabs [TargetName] firmly and pulls [TargetHim] close, keeping [TargetHim] from flapping away. [ActorName] then licks [ActorHis] lips slowly before opening [ActorHis] salivating maw wide, giving [Targetname] quite the view of [ActorHis] gullet.	s.Actor.Needs.Hunger > .5f && [ActorDigestsPrey]		
UnbirthBegin				Bat	[ActorName] gently grasps [TargetName] by [ActorHis] long ears, and forcefully shoves [TargetHis] nose against [ActorHis] [Pussy], moaning lewdly while they slowly slide [TargetHis] Muzzle inside.			
UnbirthBegin				Bat	[ActorName] doesn't waste any time and presses their [Pussy] against [TargetName]'s muzzle before smearing [TargetHim] against the entrance, trying to force [TargetHim] inside.			
UnbirthBegin				Bat	[ActorName] forces [TargetName] on [TargetHis] knees, before grinding [ActorHis] [Pussy] against [TargetHis] muzzle, slipping it inside inch by inch with every buck of [ActorHis] hips.			
CockVoreBegin				Bat	[TargetName] is forced to their knees, putting them face to face with [ActorName]’s swollen [Dick], hungry to pull a bat inside it.			
CockVoreBegin				Bat	[ActorName] shoves [TargetName] to the ground as their [Dick] grows between them.			
CockVoreBegin				Bat	[TargetName] is shocked to see [ActorName] looming over them with a throbbing [Dick] in hand, starting to place their paw on [TargetHis] head.			
CockVoreBegin				Bat	[ActorName] grins holding their swelling [Dick], starting to stroke between [TargetName]'s long ears. "I think you know what's next, [TargetName]."			
CockVoreBegin				Bat	Helpless to resist [TargetName] is held tightly, with their wings unable to spread to fly away, as [ActorName] strokes at [ActorHis] [Dick]. "Sorry but my [Dick] needs some attention. You don't mind do you?"			
AnalVoreBegin				Bat	[ActorName] suddenly tackles [TargetName], knocking them to the ground, subduing them into a position where [TargetName] is on their knees and [ActorName]’s bare ass is situated atop their muzzle, starting to grind it past their pucker.			
AnalVoreBegin				Bat	[ActorName] grabs [TargetName] and forces [TargetHim] to [TargetHis] knees, then slowly starts to sit on [TargetName]'s muzzle, ass starting to spread around [TargetHis] nose.			
								
//Relating to Body Parts								
HeadDescription				Bat	[TargetName]'s [TargetEyeColor] eyes shine and catch enough light to nearly glow in the dark, and [TargetHeHas] [TargetHairLength] [TargetHairStyle] [TargetHairColor] hair, with long bat ears rising from the top of [TargetHis] head.			
								
WaistDescription			Bat		Clothing completely covers [TargetHis] [WaistAdjective] waist, but the [TargetCustom-Tail Color] tail is clearly visible.	[TargetFullyClothed]		
WaistDescription			Bat		Only underwear, and [TargetHis] [TargetCustom-Tail Color] tail hides [TargetHis] nethers, leaving little to the imagination.	[TargetHasVagina] && [TargetInUnderwear]		
WaistDescription			Bat		[ActorHisCapitalized] nethers are on full display, with [TargetHis] [TargetCustom-Tail Color] tail dangling down.	[TargetNude]		
WaistDescription			Bat		Only underwear hides [TargetHis] [Dick], leaving a clear outline.	[TargetHasDick] && [TargetInUnderwear]		
WaistDescription			Bat		[ActorHisCapitalized] member is on full display. [ActorHisCapitalized] tail hangs loosely from behind [ActorHim].	[TargetHasDick] && [TargetNude]		
TorsoDescription			Bat		[ActorHisCapitalized] bra is the only cover for [TargetHis] [TargetBoobSize] boobs, leaving little to the imagination, and wings flowing from [TargetHis] arms.	[TargetHasBoobs] && [TargetInUnderwear]		
TorsoDescription			Bat		[ActorHisCapitalized] [TargetBoobSize] boobs are completely open to the air, wings just slightly covering their features.	[TargetHasBoobs] && [TargetNude]		
TorsoDescription	1		Bat		[ActorHisCapitalized] top completely covers [TargetHis] torso, leaving the outlines from [TargetHis] [TargetBoobSize] boobs, and [TargetCustom-Wing Color] wings on display.	[TargetHasBoobs] && [TargetFullyClothed]		
TorsoDescription	0		Bat		[ActorHisCapitalized] bare chest is fully visible, showing off [TargetHis] upper body, and [TargetCustom-Wing Color] wings on display.	[TargetHasBoobs] == false		
HeadOralVore				Bat	[ActorName] shoves [TargetName]'s head into [ActorHis] jaws, causing [TargetName]'s bat ears to be folded down onto [TargetHis] head.			
HeadOralVore				Bat	[ActorName] manages to fit [TargetName]'s head inside of [ActorHis] mouth, smearing saliva across [TargetHis] cheeks, and matting down [TargetHis] fur, while folding their ears.			
HeadOralVore				Bat	[ActorName] shoves [TargetName]'s muzzle into [ActorHis] jaws, causing [TargetName] to be plunged toward [ActorHis] pulsing gullet, waiting to swallow [TargetHis] muzzle.			
HeadUnbirth				Bat	[ActorName] manages to shove [TargetName]'s muzzle past the entrance of [ActorHis] [Pussy], along with forcing [TargetHis] long ears to fold down.			
HeadUnbirth				Bat	[ActorName] curls [ActorHis] digits around [TargetName]'s ears, before using them to shove poor [TargetName] into [ActorHis] [Pussy], clamping [TargetHim] between the moist walls.			
HeadUnbirth				Bat	[ActorName]'s [Pussy] latches onto [TargetName]'s head, pulsing around it while they quickly were slurped in up to their neck, beginning to draw [TargetHim] into the tight tunnel.			
HeadCockVore				Bat	[ActorName] gently strokes underneath [TargetName]’s chin, before tugging [TargetHim] forward, plunging [TargetHim] past [ActorHis] drooling slit, shaft twitching as it slurped over [TargetName]'s ears.			
HeadCockVore				Bat	[TargetName] didn't stand a chance in stopping [ActorName]'s [Dick] from engulfing their muzzle and sucking it inside.			
HeadCockVore				Bat	A sudden darkness closes in around [TargetName]'s head, while [TargetHis] eyes still shine in the dark, picking up what little light there was. [ActorName] cracks a grin as their [Dick] sucked its meal inside.			
HeadAnalVore				Bat	As [ActorName] eases more of [ActorHis] weight on their impromptu seat, [TargetName] head is pushed harder against [ActorName]’s anal ring before it suddenly widens and envelops their head.			
ShoulderOralVore				Bat	[ActorName] gulps heavily, drawing in [TargetName]'s [ShoulderAdjective] shoulders, folding [TargetHis] wings against [TargetHis] own body, limiting any movement.			
ShoulderOralVore				Bat	[ActorName] has little trouble gulping around [TargetName]'s [ShoulderAdjective] shoulders, pinning [TargetHis] wings against [TargetHimself] while their lower half hung from [ActorHis] jaws.			
ShoulderUnbirth				Bat	[ActorName]'s [Pussy] stretches around [TargetName]'s [ShoulderAdjective] shoulders, finishing off the hardest part of making [TargetName] vanish past [ActorHis] entrance, preventing [TargetHim] from spreading [TargetHis] wings.			
ShoulderUnbirth				Bat	[ActorName] moans at the pleasure of [ActorHis] [Pussy] stretching wider to suck down [TargetName]'s shoulders, leaving [TargetHis] wings uselessly pinned to [TargetHis] sides, while clear liquid drools from [ActorName]'s [Pussy].			
ShoulderCockVore				Bat	[ActorName]’s dick drools slick pre, lubricating [TargetName]'s descent down [ActorHis] [Dick], while the ensnared bat's wings begin to vanish inside [ActorName]’s [Dick].			
ShoulderCockVore				Bat	[TargetName]'s body squirms as their wings are squeezed tightly against [TargetHim] on their way down the shaft of [ActorName]'s [Dick], mesmerizing scent filling [TargetHis] nostrils as [TargetHe] sinks ever deeper.			
ShoulderAnalVore				Bat	[ActorName] shimmies their [WaistAdjective] hips from side to side to pull [TargetName]’s [ShoulderAdjective] shoulders, and soon [TargetCustom-Wing Color] wings into their hungry [Anus].			
TorsoDescription				Bat	[ActorHisCapitalized] bra is the only cover for [TargetHis] [TargetBoobSize] boobs, leaving little to the imagination, aside from what [TargetHis] [TargetCustom-Wing Color] could hide.	[TargetHasBoobs] && [TargetInUnderwear]		
TorsoDescription				Bat	[ActorHisCapitalized] [TargetBoobSize] boobs are completely open to the air, with exception to [TargetHis] [TargetCustom-Wing Color] wings obstructing some of the view.	[TargetHasBoobs] && [TargetNude]		
TorsoDescription	1			Bat	[ActorHisCapitalized] top completely covers [TargetHis] torso, leaving the outlines from [TargetHis] [TargetBoobSize] boobs, and a pair of [TargetCustom-Wing Color] wings flowing from [TargetHis] arms.	[TargetHasBoobs] && [TargetFullyClothed]		
TorsoDescription	0			Bat	[ActorHisCapitalized] bare chest is fully visible, showing off [TargetHis] upper body, and proudly displaying a pair of [TargetCustom-Wing Color] wings, flowing down from each arm.	[TargetHasBoobs] == false		
TorsoOralVore	5			Bat	[ActorName] swallows [TargetName]'s chest, groaning in annoyance as the fabric of [TargetHis] clothing gets in the way of tasting [TargetHis] tantalizing [Breasts], though at least those wings lent themselves to getting licked by [ActorHis] teasing tongue.	[TargetHasBoobs] && [TargetFullyClothed] && [ActorLikesTargetGender]		
TorsoOralVore	5			Bat	[ActorName] gulps down [TargetName]'s torso, feeling very frustrated that [TargetHis] clothing prevents access to one of the tastiest parts of [ActorName]'s meal, [TargetName]'s [TargetBoobSize] [Breasts], though at least [TargetHis] wings would suffice.	[TargetHasBoobs] && [TargetFullyClothed] && [ActorLikesTargetGender]		
TorsoOralVore	4			Bat	[ActorName] gulps down [TargetName]'s torso, not overly bothered by the fact that [TargetHis] clothing prevents licking [TargetHis] [TargetBoobSize] [Breasts] properly, because at least [ActorHe] could get a taste at those [TargetCustom-Wing Color] wings.	[TargetHasBoobs] && [TargetFullyClothed]		
TorsoOralVore	4			Bat	[ActorName] swallows [TargetName]'s chest and wings, only mildly annoyed that [TargetHis] clothing stops them from tasting [TargetHis] [TargetBoobSize] [Breasts].	[TargetHasBoobs] && [TargetFullyClothed]		
TorsoOralVore	3			Bat	[ActorName] swallows [TargetName]'s chest, causing the last of [TargetHis] wings to vanish past those lips, pleased that they can taste the exposed flesh of [TargetHis] tasty [TargetBoobSize] [Breasts], only moderately hampered by [TargetHis] bra.	[TargetHasBoobs] && [TargetInUnderwear] && [ActorLikesTargetGender]		
TorsoOralVore	3			Bat	[ActorName] gulps down [TargetName]'s torso, trapping [TargetHis] wings around [TargetHim], eagerly licking and tasting what they can of [TargetHis] [TargetBoobSize] [Breasts] around the fabric of [TargetHis] bra.	[TargetHasBoobs] && [TargetInUnderwear] && [ActorLikesTargetGender]		
TorsoOralVore	2			Bat	[ActorName] swallows around [TargetName]'s chest, not particularly interested in [TargetHis] [TargetBoobSize] [Breasts], instead letting [ActorHis] tongue wetly slurp along [TargetName]'s wings.	[TargetHasBoobs] && [TargetInUnderwear]		
TorsoOralVore	2			Bat	[ActorName] down [TargetName] down to [TargetHis] hips, paying little attention to the exposed fatty flesh of [TargetHis] [TargetBoobSize] [Breasts] around [TargetHis] bra, while the last of [[TargetHis] wings were finished off.	[TargetHasBoobs] && [TargetInUnderwear]		
TorsoOralVore	1			Bat	[ActorName] swallows around [TargetName]'s chest, letting [TargetHim] feel powerful smooth muscle squeeze around [TargetHis] wings tightly, and tongue playing along [TargetHis] [TargetBoobSize] [Breasts].	[TargetHasBoobs] && [ActorLikesTargetGender]		
TorsoOralVore	1			Bat	[ActorName] gulps down [TargetName]'s torso, squeezing [TargetHis] wings around [TargetHim] while [ActorName] feels [TargetName]'s nipples drag across [ActorHis] tongue.	[TargetHasBoobs] && [ActorLikesTargetGender]		
TorsoOralVore	1			Bat	As [ActorName] slowly swallows [TargetName]'s chest, pinning [TargetHis] wings to [TargetHis] body while they pause briefly to lick and slurp on [TargetHis] [TargetBoobSize] [Breasts], savoring the taste of the yummy mounds of fat before gulping them down as well.	[TargetHasBoobs] && [ActorLikesTargetGender]		
TorsoOralVore	0			Bat	[ActorName] swallows [TargetName]'s chest, feeling [TargetHis] wings slide past [ActorHis] jaws while the weight of [TargetHis] [TargetBoobSize] [Breasts] slides across[ActorHis] tongue.	[TargetHasBoobs]		
TorsoOralVore	0			Bat	[ActorName] gulps down [TargetName]'s torso and wings, not really caring about [TargetHis] [TargetBoobSize] [Breasts], other than recognizing them as tasty blobs of fat.	[TargetHasBoobs]		
TorsoOralVore				Bat	[ActorName] swallows [TargetName] past [TargetHis] chest and down to [TargetHis] waist, pinning [TargetHis] wings to [TargetHis] sides as [TargetName]'s lower half hangs from [ActorName]'s drooling jaws. 	[TargetHasBoobs] == false		
TorsoOralVore				Bat	[ActorName] gulps down [TargetName]'s torso, curling [ActorHis] tongue around [TargetName]'s tasty wings, pinning them uselessly as [ActorName]'s pulsing throat slowly drags [TargetHim] down.	[TargetHasBoobs] == false		
TorsoUnbirth				Bat	[ActorName]'s [Pussy] draws [TargetName]'s wings and chest inside, feeling [TargetHis] [TargetBoobSize] [Breasts] stretch out the tight tunnel, fueling [ActorName]'s pleasure.	[TargetHasBoobs]		
TorsoUnbirth				Bat	[ActorName] sinks [TargetName] into [ActorHis] [Pussy] down to [TargetName]'s chest, wings slowly getting cramped against [TargetHis] body, leaving [TargetHim] to uselessly squirm.	[TargetHasBoobs] == false		
TorsoCockVore				Bat	[TargetName]’s outline sinks farther down [ActorName]’s shaft as [TargetHis] wings get squeezed down the length, leaving [TargetHim] in the tight, musky tunnel.			
TorsoCockVore				Bat	[TargetName]’s [TargetBoobSize] boobs leave a noticeable bump in [ActorName]’s [Dick] as their chest joins the rest of [TargetHim], wings slipping past the vent.	[TargetHasBoobs]		
TorsoCockVore				Bat	[ActorName] shudders feeling the writhing body of [TargetName] passing through their cockhead, thinking about how good those wings feel sliding down [ActorHis] shaft.			
TorsoAnalVore				Bat	Bouncing up and down, [ActorName] moans in pleasure as [ActorHe] fucks [ActorHimself] with [TargetName]’s body, wrapped in [TargetHis] own wings while [TargetHis] torso sinks deeper and deeper into [ActorName]’s bowels.			
TorsoAnalVore				Bat	Pushing [ActorHis] full weight down on [ActorHis] squirming prey, [ActorName] sighs happily as they feel [TargetName]'s torso sliding smoothly into the depths of their bowels, pinning [TargetName]'s wings to [TargetHis] body.			
WaistDescription			Bat		Clothing completely covers [TargetHis] [WaistAdjective] waist, save for where [TargetHis] tail hangs behind [TargetHim].	[TargetFullyClothed]		
WaistDescription			Bat		Only underwear hides [TargetHis] nethers, revealing much of the bat's fine features, [TargetCustom-Tail Color] tail hanging behind [TargetHim].	[TargetHasVagina] && [TargetInUnderwear]		
WaistDescription			Bat		[ActorHisCapitalized] nethers are on full display, wings hardly helping to cover [ActorHis] more intimate areas.	[TargetNude]		
WaistDescription	1		Bat		Only underwear hides the bat's [Dick], leaving a clear outline.	[TargetHasDick] && [TargetInUnderwear]		
WaistDescription	1		Bat		[ActorHisCapitalized] member is on full display, hanging between the bat's thighs.	[TargetHasDick] && [TargetNude]		
WaistOralVore	5			Bat	[ActorName] swallows [TargetName]'s [WaistAdjective] waist, feeling disappointed that [TargetName]'s clothes prevent [ActorHim] from tasting their [Pussy] while the bat's tail hangs from [ActorHis] jaws.	[TargetHasVagina] && [TargetFullyClothed] && [ActorLikesTargetGender]		
WaistOralVore	5			Bat	[ActorName] gulps down [TargetName]'s [WaistAdjective] hips, wishing more than ever that [TargetName] wasn't clothed right now so [ActorHe] could taste at more than the bat's tail.	[TargetHasVagina] && [TargetFullyClothed] && [ActorLikesTargetGender]		
WaistOralVore	5			Bat	[ActorName] has some trouble getting [TargetName]'s [WaistAdjective] hips and tail down, giving [ActorHim] more time to think about how unfortunate it is that [TargetName] is clothed.	[TargetHasVagina] && [TargetFullyClothed] && [ActorLikesTargetGender]		
WaistOralVore	4			Bat	[ActorName] swallows [TargetName]'s [WaistAdjective] waist and base of the bat's tail, finding the taste of [TargetName]'s clothes unsatisfying but not caring about what lies beyond them.	[TargetHasVagina] && [TargetFullyClothed]		
WaistOralVore	4			Bat	[ActorName] gulps down [TargetName]'s [WaistAdjective] hips, getting the hardest part of [ActorHis] meal over with, bat's tail getting crammed in [ActorHis] jaws.	[TargetHasVagina] && [TargetFullyClothed]		
WaistOralVore	4			Bat	[ActorName] has some trouble getting [TargetName]'s [WaistAdjective] hips and accompanying tail down, not overly bothered that [TargetName] is clothed.	[TargetHasVagina] && [TargetFullyClothed]		
WaistOralVore	3			Bat	[ActorName] swallows [TargetName]'s [WaistAdjective] waist and [TargetCustom-Tail Color] tail, licking the front of [TargetName]'s underwear while wishing for a taste of what's just beyond it.	[TargetHasVagina] && [TargetInUnderwear] && [ActorLikesTargetGender]		
WaistOralVore	3			Bat	[ActorName] gulps down [TargetName]'s [WaistAdjective] hips and [TargetCustom-Tail Color] tail, tasting the skin around [TargetName]'s underwear with [ActorHis] eager tongue, craving a taste of the bat's [Pussy].	[TargetHasVagina] && [TargetInUnderwear] && [ActorLikesTargetGender]		
WaistOralVore	3			Bat	[ActorName] has some trouble getting [TargetName]'s [WaistAdjective] hips and tail down, giving more time to use [ActorHis] tongue to tease [TargetName]'s [Pussy] through the thin fabric of the squirming bat's underwear.	[TargetHasVagina] && [TargetInUnderwear] && [ActorLikesTargetGender]		
WaistOralVore	2			Bat	[ActorName] swallows [TargetName]'s [WaistAdjective] waist and tail, not bothered in the least that [TargetName]'s underwear is covering the bat's groin.	[TargetHasVagina] && [TargetInUnderwear]		
WaistOralVore	2			Bat	[ActorName] gulps down [TargetName]'s [WaistAdjective] hips, and begins to slurp at the bat's tail, getting the hardest part of [ActorHis] meal over with.	[TargetHasVagina] && [TargetInUnderwear]		
WaistOralVore	2			Bat	[ActorName] has some trouble getting [TargetName]'s [WaistAdjective] hips and base of [TargetHis] [TargetCustom-Tail Color] tail down, causing the front of [TargetName]'s underwear to linger in [ActorHis] mouth, but [ActorName] has no interest in what it's covering.	[TargetHasVagina] && [TargetInUnderwear]		
WaistOralVore	1			Bat	[ActorName] swallows [TargetName]'s [WaistAdjective] waist, fitting the bat's tail in [ActorHis] maw while using [ActorHis] tongue to tease [TargetName]'s [Pussy].	[TargetHasVagina] && [ActorLikesTargetGender]		
WaistOralVore	1			Bat	[ActorName] gulps down [TargetName]'s [WaistAdjective] hips and tail, pleased with the feeling of [TargetName]'s [Pussy] dragging across [ActorHis] tongue.	[TargetHasVagina] && [ActorLikesTargetGender]		
WaistOralVore	1			Bat	[ActorName] has some trouble getting [TargetName]'s [WaistAdjective] hips down, causing [TargetName]'s [Pussy] to stop on their tongue, allowing a little extra time to play with it, causing the bat's tail to twitch.	[TargetHasVagina] && [ActorLikesTargetGender]		
WaistOralVore	1			Bat	[TargetName]'s feet kick wildly as [ActorName]'s mouth covers [TargetHis] [WaistAdjective] waist, drooling over the bat's tail, while [ActorHis] tongue tastes [TargetName]'s [Pussy].	[TargetHasVagina] && [ActorLikesTargetGender]		
WaistOralVore				Bat	[ActorName] swallows down to [TargetName]'s [WaistAdjective] waist and the base of [TargetHis] [TargetCustom-Tail Color] tail, finishing off the last of [TargetHis]'s [TargetCustom-Wing Color] wings, leaving [ActorHim]  with [TargetName]'s tail hanging from [ActorHis] jaws.			
WaistOralVore				Bat	[ActorName] swallows [TargetName]'s [WaistAdjective] hips and base of [TargetHis] tail, getting the hardest part over with.	[TargetHasVagina]		
WaistOralVore				Bat	[ActorName] gulps down [TargetName]'s [WaistAdjective] waist, not giving any attention to [TargetHis] groin, while the bat's tail hangs from [ActorName]'s drooling maw.	[TargetHasVagina]		
WaistOralVore				Bat	[ActorName] has some trouble getting [TargetName]'s [WaistAdjective] hips and tail down, causing [TargetName]'s privates to remain in [ActorHis] mouth, but they aren't interested in them.	[TargetHasVagina]		
WaistOralVore				Bat	[TargetName] feet kick wildly and tail thrashes as [ActorName]'s mouth covers [TargetHis] [WaistAdjective] waist, [TargetHis] struggles to break free in vain.	[TargetHasVagina] && [TargetWillingPrey] == false		
WaistOralVore	5			Bat	[ActorName] swallows [TargetName]'s [WaistAdjective] waist and tail, quite disappointed that [ActorHis] tongue is denied access to [TargetName]'s [TargetDickSize] [Dick] by their clothing.	[TargetHasDick] && [TargetFullyClothed] && [ActorLikesTargetGender]		
WaistOralVore	5			Bat	[ActorName] gulps down [TargetName]'s [WaistAdjective] hips and base of the bat's tail, [ActorHis] tongue probing the [TargetDickSize] bulge of [TargetName]'s [Dick], desiring access to it through their clothes but finding none.	[TargetHasDick] && [TargetFullyClothed] && [ActorLikesTargetGender]		
WaistOralVore	5			Bat	[ActorName] has some trouble getting [TargetName]'s [WaistAdjective] hips and tail down, the enticing bulge of [ActorHis] prey's [TargetDickSize] [Dick] settles teasingly on [ActorHis] eager tongue briefly, but yields only the disappointing taste of fabric because [TargetName]'s clothes are in the way.	[TargetHasDick] && [TargetFullyClothed] && [ActorLikesTargetGender]		
WaistOralVore	4			Bat	[ActorName] swallows [TargetName]'s [WaistAdjective] waist and [TargetCustom-Tail Color] tail, thinking to [ActorHimself] that there is at least one small upside to clothed prey, as [TargetName]'s clothing prevents any unwanted contact between [ActorName]'s tongue and [ActorHis] prey's [Dick].	[TargetHasDick] && [TargetFullyClothed]		
WaistOralVore	4			Bat	[ActorName] gulps down [TargetName]'s [WaistAdjective] hips and tail, thankful that [TargetHis] clothing keeps them from having to taste [TargetHis] [TargetDickSize] [Dick].	[TargetHasDick] && [TargetFullyClothed]		
WaistOralVore	4			Bat	[ActorName] has some trouble getting [TargetName]'s [WaistAdjective] hips and tail down, completely ignoring the [TargetDickSize] bulge in [TargetName]'s lower clothing as it lingers on [ActorName]'s tongue.	[TargetHasDick] && [TargetFullyClothed]		
WaistOralVore	3			Bat	[ActorName] swallows [TargetName]'s [WaistAdjective] waist and tail, tracing [ActorHis] tongue around the enticing bulge of [TargetName]'s [TargetDickSize] [Dick] in the bat's underwear.	[TargetHasDick] && [TargetInUnderwear] && [ActorLikesTargetGender]		
WaistOralVore	3			Bat	[ActorName] gulps down [TargetName]'s [WaistAdjective] hips and tail, enjoying the feeling of the [TargetDickSize] bulge of [TargetName]'s [Dick] dragging across [ActorHis] tongue, but wishing that the bat's underwear wasn't in the way.	[TargetHasDick] && [TargetInUnderwear] && [ActorLikesTargetGender]		
WaistOralVore	3			Bat	[ActorName] has some trouble getting [TargetName]'s [WaistAdjective] hips along with the bat's tail down, giving [ActorHim] time to tease [TargetName]'s [TargetDickSize] [Dick] through their underwear with [ActorHis] tongue..	[TargetHasDick] && [TargetInUnderwear] && [ActorLikesTargetGender]		
WaistOralVore	2			Bat	[ActorName] swallows [TargetName]'s [WaistAdjective] waist and tail, pleased that [TargetName]'s underwear allow them to not have to taste [TargetHis] [TargetDickSize] [Dick].	[TargetHasDick] && [TargetInUnderwear]		
WaistOralVore	2			Bat	[ActorName] gulps down [TargetName]'s [WaistAdjective] hips and accompanying tail, ignoring the [TargetDickSize] bulge in [TargetName]'s underwear as it slides across [ActorHis] tongue.	[TargetHasDick] && [TargetInUnderwear]		
WaistOralVore	2			Bat	[ActorName] has some trouble getting [TargetName]'s [WaistAdjective] hips down with the bat's tail in the way, causing them to have to feel the unwanted [TargetDickSize] bulge in [TargetName]'s underwear on their tongue for longer than they would like.	[TargetHasDick] && [TargetInUnderwear]		
WaistOralVore	1			Bat	[ActorName] swallows [TargetName]'s [WaistAdjective] waist and tail, using [ActorHis] tongue to tease [TargetName]'s [TargetDickSize] member and [ActorHis] [TargetBallSize] [Balls].	[TargetHasDick] && [ActorLikesTargetGender]		
WaistOralVore	1			Bat	[ActorName] gulps down [TargetName]'s [WaistAdjective] hips and the bat's tail, pleased with the feeling of [TargetName]'s [TargetBallSize] [Balls] and [TargetDickSize] cock dragging across [ActorHis] tongue.	[TargetHasDick] && [ActorLikesTargetGender]		
WaistOralVore	1			Bat	[ActorName] has some trouble getting [TargetName]'s [WaistAdjective] hips down due to the bat's tail, causing [TargetName]'s [TargetBallSize] [Balls] and [TargetDickSize] dick to stall on their tongue, allowing a little extra time to play with it.	[TargetHasDick] && [ActorLikesTargetGender]		
WaistOralVore				Bat	[ActorName] swallows [TargetName]'s [WaistAdjective] waist and tail, trying to avoid thinking about the [TargetDickSize] dick that [ActorHeHas] no interest in.	[TargetHasDick]		
WaistOralVore				Bat	[ActorName] gulps down [TargetName]'s [WaistAdjective] waist along with the bat's tail, the rest should be easy from there.	[TargetHasDick]		
WaistOralVore				Bat	[ActorName] has some trouble getting [TargetName]'s [WaistAdjective] hips down with the bat's tail swishing, causing [TargetName]'s [TargetBallSize] [Balls] and [TargetDickSize] cock to stall on [TargetHis] tongue, much to the dismay of [ActorName].	[TargetHasDick]		
WaistOralVore				Bat	[ActorName] tries to gulp down [TargetName]'s [WaistAdjective] hips and tail as quickly as possible, wanting to limit the amount of time they are forced to taste [TargetHis] [TargetBallSize] [Balls] and [TargetDickSize] [Dick].	[TargetHasDick]		
WaistUnbirth				Bat	As [TargetName]'s waist slides into [ActorName]'s [Pussy], [TargetName]'s tail squirms, stimulating the sensitive flesh around it.			
WaistUnbirth				Bat	[ActorName]'s [Pussy] draws in [TargetName]'s [WaistAdjective] hips and the bat's tail, causing waves of pleasure to surge through [ActorHis] nethers.	[TargetHasVagina]		
WaistUnbirth				Bat	[TargetName]'s [WaistAdjective] waist along with the bat's tail is drawn into [ActorName]'s [Pussy] as [TargetHis] [TargetDickSize] [Dick] is pulled inside.	[TargetHasDick]		
WaistUnbirth				Bat	[ActorName] winces as [TargetName]'s [WaistAdjective] waist and hanging tail is drawn into [ActorHis] [Pussy], but overcomes the ordeal.			
WaistCockVore				Bat	Approaching [TargetName]’s [WaistAdjective] hips and the bat's tail, [ActorName] aims [ActorHis] [Dick] skyward, using gravity to help pull [TargetHis] hips inside.			
WaistCockVore				Bat	[ActorName] smiles watching [TargetName]'s bubble butt and base of [TargetHis] tail slowly disappear inside of their [Dick].			
WaistCockVore				Bat	[ActorName] plays with [TargetName]'s [Dick] and [Balls] before their genitals, tail, and all slip past the vent of a real Pred's [Dick].	[TargetHasDick]		
WaistAnalVore				Bat	[ActorName] lays down and uses all their might to pull [TargetName]’s [WaistAdjective] hips and [TargetCustom-Tail Color] tail into [ActorHis] butt, groaning in delight as [ActorHis] stretched pucker crests over the widest portion of [ActorHis] ass snack.			
LegOralVore				Bat	[ActorName] swallows [TargetName]'s legs, working [ActorHis] way down to [TargetHis] foot-paws and last of the bat's tail.			
LegOralVore				Bat	[ActorName] downs [TargetName]'s legs, slurping them up like noodles, along with most of [TargetHis] tail.			
LegOralVore				Bat	[TargetName]'s legs and tail slowly vanish into the maw of [ActorName].			
LegUnbirth				Bat	[TargetName]’s legs and tail quickly disappear from view thanks to plenty of juices flowing from [ActorName]’s [Pussy] over the slackened bat.			
LegUnbirth				Bat	[ActorName]'s [Pussy] claims [TargetName]'s legs and most of the bat's tail, working its way to [TargetHis] foot-paws.			
LegCockVore				Bat	[TargetName]’s legs and tail quickly disappear from view thanks to plenty of lubricant drooling from [ActorName]’s tip.			
LegCockVore				Bat	No matter how much [TargetName]'s legs flail and tail thrashes, there's no escape from [ActorName]'s [Dick] wanting to claim him.	[TargetWillingPrey] == false		
LegCockVore				Bat	The constricting inside of [ActorName]'s [Dick] force [TargetName]'s legs and tail together, holding them tightly and pulling them deeper.			
LegAnalVore				Bat	[ActorName] takes it slow as the hard part of [ActorHis] meal is past [ActorHim], easily drawing [TargetName]’s twitching legs and swishing tail into [ActorHis] [Anus] with a few contractions.			
FeetOralVore				Bat	[ActorName] swallows [TargetName]'s foot-paws, causing the last of [TargetHis] body to vanish from sight.			
FeetOralVore				Bat	[ActorName] swallows [TargetName]'s foot-paws, which allows [TargetHis] body to collect in [ActorHis] stomach.			
FeetOralVore				Bat	[ActorName] gulps down [TargetName]'s foot-paws, and the rest of [TargetHis] body slides smoothly down [ActorName]'s slick throat and into [ActorHis] waiting stomach.			
FeetOralVore				Bat	[TargetName]'s foot-paws disappear entirely down [ActorName]'s gullet with one last powerful swallow. [TargetName] is rapidly squeezed down [ActorName]'s esophagus and soon arrives within the warm confines of [ActorHis] stomach, which welcomes [ActorHis] latest meal with a hungry gurgle.	[ActorDigestsPrey]		
FeetUnbirth				Bat	[TargetName]’s foot-paws vanish from view, and soon after [TargetHis] entire body slides through [ActorName]'s Cervix and into [ActorHis] womb.			
FeetCockVore				Bat	[TargetName]’s foot-paws slip from view, the bulge they make in [ActorName]’s shaft descends down into their growing [Balls].			
FeetAnalVore				Bat	Only [TargetName]’s foot-paws remain outside, but those swiftly disappear between [ActorName]’s asscheeks as they pull them inside.			
FeetAnalVore				Bat	With a final contraction, [TargetName]'s foot-paws are pulled completely inside of [ActorName]'s ass, [ActorHis] anal ring squeezing tightly closed as the last of their meal disappears from view.			
BellySizeDescription	9		Bat		They have a massive gut that neither their clothing nor their wings stand any chance of covering.	s.Actor.VoreController.BellySize() > 3.5f		
BellySizeDescription	8		Bat		They have a swollen belly that looks big enough to fit a few people inside, that their wings can't hide.	s.Actor.VoreController.BellySize() > 3		
BellySizeDescription	7		Bat		They have a bulging belly that looks easily big enough to fit two people inside, and can just barely fit those wings around it.	s.Actor.VoreController.BellySize() > 2.5f		
BellySizeDescription	6		Bat		They have a belly that looks like it might have two whole bats inside.	s.Actor.VoreController.BellySize() > 2		
BellySizeDescription	5		Bat		They have a belly that looks like it might fit more than just a single bat-snack.	s.Actor.VoreController.BellySize() > 1.25f		
BellySizeDescription	4		Bat		They have a bulging gut that looks easily big enough to fit an entire person inside, and their wings can only just stretch around it.	s.Actor.VoreController.BellySize() > .95f		
BellySizeDescription	3		Bat		Their belly doesn't look quite person-sized anymore.	s.Actor.VoreController.BellySize() > .75f		
BellySizeDescription	2		Bat		Their belly is slowly shrinking, now noticeably smaller than it used to be, easily able to be hidden past their wings.	s.Actor.VoreController.BellySize() > .5f		
BellySizeDescription	1		Bat		Their belly is most of the way back to normal size, hardly betraying the presence of their former prey.	s.Actor.VoreController.BellySize() > .25f		
BellySizeDescription	0		Bat		Their belly is only slightly larger than normal, hard to tell if the bat just ate a big meal or if it's the very end of a prey.			
BallsSizeDescription	9		Bat		The bat's massive nuts are stretched taut with numerous prey trapped inside.	s.Actor.VoreController.BallsSize() > 3.5f		
BallsSizeDescription	8		Bat		The bat's swollen balls look like they contain a few people inside.	s.Actor.VoreController.BallsSize() > 3f		
BallsSizeDescription	7		Bat		The bat's distended balls are big enough to easily fit two people inside.	s.Actor.VoreController.BallsSize() > 2.5f		
BallsSizeDescription	6		Bat		They look like they might have two people stuffed between their thighs.	s.Actor.VoreController.BallsSize() > 2f		
BallsSizeDescription	5		Bat		Their bloated sac looks like it could contain more than just one person.	s.Actor.VoreController.BallsSize() > 1.25f		
BallsSizeDescription	5		Bat		Their bat balls are big enough that they touch the ground.	s.Actor.VoreController.BallsSize() > 1.25f && [ActorNude]		
BallsSizeDescription	5		Bat		Their bat balls make a considerable bulge in their clothing.	s.Actor.VoreController.BallsSize() > 1.25f && [ActorNude] == false		
BallsSizeDescription	4		Bat		Their swollen bat balls are large enough to encase a fully grown person.	s.Actor.VoreController.BallsSize() > .95f		
BallsSizeDescription	3		Bat		The bat's balls don’t quite look person sized anymore.	s.Actor.VoreController.BallsSize() >.75f		
BallsSizeDescription	2		Bat		The bat's balls are brimming with more cum than person at this point.	s.Actor.VoreController.BallsSize() >.5f		
BallsSizeDescription	1		Bat		The bat's large balls slosh audibly with the jizz that their prey melted into.	s.Actor.VoreController.BallsSize() >.25f		
BallsSizeDescription	0		Bat		The bat's balls are noticeably bigger than normal.	[ActorNude]		
BallsSizeDescription	0		Bat		There is a noticeable bulge in the bat's clothing.	[ActorNude] == false		
								
//Sex Actions								
RubHair		0.25		Bat	[ActorName] rubs between [TargetName]'s long ears, causing [TargetHim] to shiver and sigh happily.			
