Type	Priority	Fallthrough	ActorRace	TargetRace	Text	Conditional	Success	Notes
								
Shower		0.6	Kitsune		[ActorName] lathers and rinses their tails thoroughly, making sure they are absolutely clean.			
Shower		0.6	Kitsune		Using plenty of a special conditioner, [ActorName] lathers their hair and tails thickly with the cleaning goo.			
Shower		0.6	Kitsune		[ActorName] loads of with plenty of soap on their tails, almost moaning as they run their soapy tails over their squirming gut.	[ActorHasLivingBellyPrey]		
Rest		0.3	Kitsune		[ActorName] looks like a giant ball of fur as they lay, entirely wrapped by their soft tails.			
EatFood	 		Kitsune		With a modest plate of rice, steamed greens, and fish, [ActorName] is content with their meal.			
EatFood	3		Kitsune		[ActorName] chuckles as they see the many people eyeing the bizarre Sushi-Ship they ordered.	s.Actor.Needs.Hunger > .5f		
FinishDigestion		0.4	Kitsune		Licking their lips, [ActorName] grins as they feel their flat belly, ready to add another prey to it.			
GrewBigger		0.3	Kitsune		[ActorName] strokes one of their tails, enjoying their new assets and noticing a brighter sheen to their fur.			
Meet		0.15	Kitsune	Kitsune	"Oh! Hello! Wasn't expecting to meet another Kitsune here!", [ActorName] eagerly says to [TargetName].			
Meet		0.15	Kitsune		[ActorName] smiles and greets [TargetName], already looking at their hair to see how well cared for it is.			
Meet		0.15	Kitsune	Oni	"Oh! A Oni! Pleased to meet you! We should try drinking some time, eheh." Says [ActorName], teasing [TargetName].			
Meet		0.15	Kitsune		"I must be the first Kitsune you've seen! You are really eyeing my tails..." Says a slightly concerned [ActorName].			
Flirt		0.2	Kitsune		[ActorName]'s tails curl and wrap around [TargetName]'s waist, evidently implying something.		Yes	
Flirt		0.2	Kitsune		"Would you like to touch a fluffy tail~?" Flirts [ActorName] to [TargetName].		Yes	
Flirt		0.2	Kitsune		[ActorName] sneaks a tail up [TargetName]'s pants leg, blushing with a smile as they yelp.		Yes	
Flirt		0.2	Kitsune		[ActorName] curls their tails around their waist, drawing [TargetName]'s eyes to their lower body.		Yes	
Hug		0.2		Kitsune	Trying to hug them from behind, [ActorName] struggles to fully wrap their arms past the sheer amount of fluff from [TargetName]'s tails.			
Hug		0.2		Kitsune	[ActorName] feels like they could melt from the sheer warmth wrapping around them.			
Hug		0.2	Kitsune		[TargetName] is pulled into a tight and fluffy hug against [ActorName] by their tails.			
Hug		0.2	Kitsune		Offering a hug, [ActorName] chuckles as [TargetName] takes the chance to squeeze their many tails.			
Hug		0.2	Kitsune	Kitsune	It looks like there's a giant ball of fur as [ActorName] and [TargetName] hug each other.			
Compliment		0.3		Kitsune	"Your tails look so wonderful!" Says [ActorName] as they compliment [TargetName].		Yes	
Compliment		0.3	Kitsune		[ActorName] smiles as they compliment [TargetName], saying, "Your outfit is nice!"		Yes	
Compliment		0.3	Kitsune	Kitsune	[ActorName] compliments [TargetName], inquiring about what conditioner they use.		Yes	
Insult		0.5	Kitsune		[TargetName] is suddenly battered in the face by a number of tails, left sputtering as [ActorName] glares at them.			
Insult		0.5	Kitsune		[TargetName] can't even see [ActorName], the Kitsune keeping a wall of tails between the two.			
Taste			Kitsune		Taking a deep lick and smiling with their sharp teeth, [ActorName] says that they adore [TargetName]'s flavor.		Yes	
Taste			Kitsune		"Mhhm~.... You have quite a flavor~." Says [ActorName], grinning at [TargetName].		Yes	
PreyWillingYell		0.25		Kitsune	"I bet your tails will look wonderful after this!" Yells out [ActorName] as they squirm.	[TargetDigestsPrey]		
PreyWillingYell		0.5	Kitsune		"Use me well! I'm just a pile of meat for you to use!" Shouts [ActorName], relishing their current position.	[TargetDigestsPrey]		
PlayfulTeasePrey	1		Kitsune		[ActorName] smiles as their tails curl around and rub their full and squirming belly.	[TargetIsActorPrey] && [ActorDigestsPrey]		
PlayfulTeasePrey	1		Kitsune		"Nothing but fox food now~." Teases [ActorName] with a fanged grin.	[TargetIsActorPrey] && [ActorDigestsPrey]		
PlayfulTeasePrey	1		Kitsune		"You'd be surprised what live prey can do for one's tails... I've been meaning to treat myself for a while~." Says [ActorName] with a giggle.	[TargetIsActorPrey] && [ActorDigestsPrey]		
OralBegin		0.3	Kitsune		[TargetName] suddenly finds themselves tightly bound by a horde of fluffy tails, already getting a bad feeling about what comes next...			
OralBegin		0.25		Kitsune	With a yelp, [TargetName] starts fighting against the wet maw that has just overtaken their head.			
CockVoreBegin		0.25	Kitsune		[TargetName]'s feet are suddenly pulled out from beneath them, a number of tails lifting them and positioning them in front of [ActorName]'s bare cock.			
HeadDescription				Kitsune	[TargetName] has a head of [TargetHairLength] [TargetHairColor] [TargetHairStyle] hair below [TargetHairColor] fox ears with [TargetCustom-Tip Color] Tips, all above [TargetEyeColor] eyes.			
HeadOralVore			Kitsune		Fighting against tails, [ActorName]'s arms, and maw is proving difficult for [TargetName] as their head is engulfed.			
HeadOralVore				Kitsune	Despite the many tails trying to keep them free, [TargetName]'s head slips into [ActorName]'s maw.			
ShoulderOralVore			Kitsune		With their tails still tightly binding their prey, [ActorName] almost leisurely gulps down [TargetName]'s shoulders.			
TorsoDescription				Kitsune	[TargetName]'s [TargetBoobSize] breasts are snugly fit inside their bra, showing a lot of their skin. 	[TargetHasBoobs] && [TargetInUnderwear]		
TorsoDescription				Kitsune	With their [TargetBoobSize] chest open to their air, [TargetName] calmly walks around.	[TargetHasBoobs] && [TargetNude]		
TorsoDescription	1			Kitsune	[TargetName]'s chest gently rises beneath their shirt, their [TargetBoobSize] breasts being visible.	[TargetHasBoobs] && [TargetFullyClothed]		
TorsoDescription	1			Kitsune	[TargetName] has a simple shirt on, covering their chest.	[TargetHasBoobs] == false && [TargetFullyClothed]		
TorsoDescription	0			Kitsune	Seemingly unconcerned about their bare chest, [TargetName] goes on about their day.	[TargetHasBoobs] == false		
TorsoOralVore			Kitsune		Moving their tails down their preys body, [ActorName] simply crosses their arms as they swallow their foods chest.			
TorsoOralVore				Kitsune	Despite [TargetName]'s tails trying to wrap around their head, [ActorName] continues on and gulps down their chest.			
TorsoCockVore			Kitsune		Trying to keep their tails clean, [ActorName] moves them down [TargetName]'s body as they feed their chest to their cock.			
TorsoCockVore				Kitsune	[TargetName] is accidentally helping their predator as they wrap their tails around [ActorName]'s dick, arousing it and making it's insides even slicker.			
WaistDescription				Kitsune	[TargetName] has a pair of pants on, their 9 [TargetHairColor] tails with [TargetCustom-Tip Color] tips waving behind them.	[TargetFullyClothed]		
WaistDescription				Kitsune	Wearing simple pink panties, [TargetName]'s 9 [TargetHairColor] tails with [TargetCustom-Tip Color] tips sway behind their rear.	[TargetHasVagina] && [TargetInUnderwear]		
WaistDescription				Kitsune	[TargetName]'s slit is on full view, although, less noticeable due to the 9 [TargetHairColor] tails with [TargetCustom-Tip Color] tips behind it.	[TargetNude]		
WaistDescription	1			Kitsune	With a [TargetDickSize] bulge in their boxers, [TargetName]'s 9 [TargetHairColor] tails with [TargetCustom-Tip Color] tips hover behind them.	[TargetHasDick] && [TargetInUnderwear]		
WaistDescription	1			Kitsune	[TargetDickSize] girth in full view, it seems [TargetName] prefers the freedom no clothing gives their 9 [TargetHairColor] tails with [TargetCustom-Tip Color] tips.	[TargetHasDick] && [TargetNude]		
WaistOralVore			Kitsune		[TargetName]'s legs are the only thing bound now, [ActorName]'s tails holding them steady above their maw as they gulp their waist down. 			
WaistOralVore				Kitsune	[TargetName]'s tails are now starting to get bound by [ActorName]'s maw, greatly reducing their chances of escape as their waist is slurped in.			
LegDescription				Kitsune	With legs like most peoples, [TargetName] seems pretty normal from the waist down.			
LegOralVore			Kitsune		Arms still crossed, [ActorName]'s tails slowly feed their preys legs into their open maw, only binding their ankles now.			
LegOralVore				Kitsune	Having most of their tails and legs devoured, [ActorName] continues to swallow and gulp down [TargetName].			
LegCockVore				Kitsune	Moaning and leaking like mad, [ActorName] adores the feeling [TargetName]'s tails make on their cock.			
LegCockVore			Kitsune		[ActorName] groans a little, their leaking dick getting cum on their tails as they feed their preys legs into their length.			
FeetOralVore				Kitsune	Mouth closing around their feet and the last of their tails, [TargetName] is about at [ActorName]'s mercy.			
FeetOralVore			Kitsune		[ActorName] pats their writhing gut a moment, suddenly releasing their tails grip on their preys ankles, swallowing deeply as gravity plunges their meal inside them.			
FeetCockVore				Kitsune	Chuckling as [TargetName]'s tails get soaked in cum, [ActorName] reaches down and shoves the last of the Kitsune into their cock.			
FeetCockVore			Kitsune		Having their tails let go of their prey as to keep them as clean as possible, [ActorName] blows a little kiss as they use a hand to shove the rest of [TargetName] down their length.			
BellySizeDescription	9		Kitsune		There's a plethora of people inside [ActorName]'s writhing gut, it's a wonder they can move.	s.Actor.VoreController.BellySize() > 3.5f		
BellySizeDescription	8		Kitsune		It seems like there's about 4-5 people inside [ActorName]'s gut, but it's hard to tell.	s.Actor.VoreController.BellySize() > 3		
BellySizeDescription	7		Kitsune		[ActorName]'s belly is bulging massively from the 4 people crammed inside their massive gut.	s.Actor.VoreController.BellySize() > 2.5f		
BellySizeDescription	6		Kitsune		Using their tails to help support it, [ActorName] rubs and pats the 3 preys worth of outlines on their belly.	s.Actor.VoreController.BellySize() > 2		
BellySizeDescription	5		Kitsune		[ActorName] pats their belly with a sigh, roughly 2 people being squeezed tightly inside it.	s.Actor.VoreController.BellySize() > 1.25f		
BellySizeDescription	4		Kitsune		Chuckling as their tails rub and press into their belly, [ActorName] gives their sole prey's outline a firm pat.	s.Actor.VoreController.BellySize() > .95f		
BellySizeDescription	3		Kitsune		[ActorName]'s gut is a good bit rounder now, being smaller with only a few hard bulges.	s.Actor.VoreController.BellySize() > .75f		
BellySizeDescription	2		Kitsune		Entirely round and about half it's original size, [ActorName]'s gut groans and sloshes as they walk.	s.Actor.VoreController.BellySize() > .5f		
BellySizeDescription	1		Kitsune		Still the size of a basketball, [ActorName] grins as they rub and squeeze their soft, round, and sloshing gut.	s.Actor.VoreController.BellySize() > .25f		
BellySizeDescription	0		Kitsune		With hardly any prey left, [ActorName] is already considering who they'll eat next, all the while their tails stroke their slightly enlarged belly for them.			
BallsSizeDescription	9		Kitsune		Struggling to walk, [ActorName]'s massively engorged ballsack is dragged behind them, rife with many prey's struggling outlines.	s.Actor.VoreController.BallsSize() > 3.5f		
BallsSizeDescription	8		Kitsune		[ActorName]'s ballsack is crammed to it's limit, roughly 5 prey being squeezed and slathered by cum inside.	s.Actor.VoreController.BallsSize() > 3		
BallsSizeDescription	7		Kitsune		With 4 people tightly bound in their sack, [ActorName] makes sure to ease some of the weight with their tails.	s.Actor.VoreController.BallsSize() > 2.5f		
BallsSizeDescription	6		Kitsune		[ActorName] smiles as they rub and stroke their ballsack, prodding at the 3 outlines within.	s.Actor.VoreController.BallsSize() > 2		
BallsSizeDescription	5		Kitsune		With 2 people being mushed and rubbed within their sack, [ActorName] is a tad slower than normal.	s.Actor.VoreController.BallsSize() > 1.25f		
BallsSizeDescription	4		Kitsune		Relishing in the feeling, [ActorName] grins as their preys body shakes and sways inside their ballsack as they move.	s.Actor.VoreController.BallsSize() > .95f		
BallsSizeDescription	3		Kitsune		Already almost round and sloshing, it's hard to tell how much of their prey is left inside [ActorName]'s scrotum.	s.Actor.VoreController.BallsSize() > .75f		
BallsSizeDescription	2		Kitsune		[ActorName] moans as their tails support and shake their scrotum, eliciting many a groan, gurgle, and slosh from the round, beachball sized nut.	s.Actor.VoreController.BallsSize() > .5f		
BallsSizeDescription	1		Kitsune		Being roughly the size of two watermelons, [ActorName]'s ballsack sways and groans from the many Liters of cum within.	s.Actor.VoreController.BallsSize() > .25f		
BallsSizeDescription	0		Kitsune		[ActorName]'s sack is the size of soccerballs now, almost entirely done gurgling their prey down into musky fox spunk.			
Stroke			Kitsune		[TargetName] moans and gasps as the many tails of [ActorName] encircle and rub their cock with an otherworldly softness.	[TargetNude]		
RubHair				Kitsune	[TargetName] smiles as [ActorName] strokes and rubs their many tails, patting their head shortly after.			
Massage			Kitsune		Wrapping their lover with their tails, [ActorName] smiles as they give [TargetName] a full body massage.			
