Type	Priority	Fallthrough	ActorRace	TargetRace	Text	Conditional	Success	Notes
Notes Found Here					In case this gets messed up, you can view a read only copy here			
								
//Self Actions								
Rest			Lamia		[ActorName] slept in [ActorHis] bed.			
Rest			Lamia		[ActorName] slept in [ActorHis] bed and dreamed of being a rock star.			
Rest			Lamia		[ActorName]  slept coiled up in [ActorHis] bed.			
Rest			Lamia		[ActorName] slept in [ActorHis] bed and dreamed of the hot desert sun.			
Rest			Lamia		[ActorName] slept in [ActorHis] bed and dreamed of a infinite buffet.	s.Actor.Needs.Hunger > .5f		
Rest			Lamia		[ActorName] sleeps dreaming of slurping up another lamia	s.Actor.Personality.Voraphilia > .5f && s.Actor.Personality.PredWillingness > .6f		
Rest			Lamia		[ActorName] slept in [ActorHis] bed and dreamed of stuffing someone into [ActorHis] maw	s.Actor.Personality.Voraphilia > .5f && s.Actor.Personality.PredWillingness > .6f		
Rest			Lamia		[ActorName] slept in [ActorHis] bed and dreamed of getting slurped up like a noodle	s.Actor.Personality.Voraphilia > .5f && s.Actor.Personality.PreyWillingness > .6f		
Rest			Lamia		[ActorName] takes a quick nap, using a lower portion of [ActorHis] tail as a body pillow.			// Written by ZerHuskly
Shower			Lamia		[ActorName] is taking a shower.			
Shower			Lamia		[ActorName] is washing up in the shower.			
Shower			Lamia		[ActorName] is relaxing in the shower.			Added by Flame_Valxsarion
Shower			Lamia		[ActorName] lets the water of the shower flow over [ActorHis] scales.			
Shower			Lamia		[ActorName] is cleaning [ActorHimself] in the shower.			Added by Flame_Valxsarion
Shower			Lamia		While [ActorName] washes up in the shower, [ActorHis] stomach groans painfully and demands [ActorHe] eat something soon.  It may be time for a snack...	s.Actor.Needs.Hunger > .7f		Added by Flame_Valxsarion
Shower			Lamia		As [ActorName] relaxes in the shower, the pleasant warmth of the gentle water causes [ActorHim] to doze. [ActorHe] jolt[SIfActorSingular] awake with a start. It may be time for a nap...	s.Actor.Needs.Energy > .6f		Added by Flame_Valxsarion
Shower			Lamia		[ActorName] washes themselves in the shower, but [ActorHeIs] so horny that [ActorHe] end[SIfActorSingular] up just touching [ActorHimself] instead. It may be time to have some fun...	s.Actor.Needs.Horniness > .7f		Added by Flame_Valxsarion
Exercise			Lamia		[ActorName] spends some time exercising, hopefully building up [ActorHis] strength.			
Exercise			Lamia		[ActorName] lifts weights for a while, building up a bit of a sweat.			
Exercise			Lamia		[ActorName] slithers on the treadmill for a bit, having a nice workout.	[ActorHasBoobs] && [ActorNude] == false		
Exercise			Lamia		[ActorName] slithers on the treadmill for a bit, kind of regretting the fact that [ActorHeIs] not wearing a bra, as [ActorHis] breasts bounce around.	[ActorHasBoobs] && [ActorNude]		
AreaVoreTease			Lamia		[ActorName] looks around and asks "Anyone want  a big noodle for lunch?"			
AreaVoreTease	1		Lamia		[ActorName] calls out "Anyone looking for a snack?  I'm available, and I'm already nude, with no clothes in the way."	[ActorNude]		
AreaVoreTease			Lamia		[ActorName] asks "Anyone want a free meal? Namely, me?"			
Masturbate			Lamia		[ActorName] gropes [ActorHis] [Breasts] and [Pussy] over the fabric of [ActorHis] clothes, building up heat.	[ActorFullyClothed] && [ActorHasVagina] && [ActorHasBoobs]		
Masturbate			Lamia		[ActorName] massages [ActorHis] [Breasts] and fingers [ActorHis] [Pussy] over the thin fabric of [ActorHis] underwear, raising [ActorHis] passion.	[ActorInUnderwear] && [ActorHasVagina] && [ActorHasBoobs]		
Masturbate			Lamia		[ActorName] massages [ActorHis] bare [Breasts] and strokes and penetrates [ActorHis] [Pussy] with [ActorHis] fingers, giving in to pleasure.	[ActorNude] && [ActorHasVagina] && [ActorHasBoobs]		
Masturbate			Lamia		[ActorName] rubs [ActorHis] fingers across the area of [ActorHis] [Pussy] over the fabric of [ActorHis] clothes, building up heat.	[ActorFullyClothed] && [ActorHasVagina] && [ActorHasBoobs] == false		
Masturbate			Lamia		[ActorName] fingers [ActorHis] [Pussy] over the thin fabric of [ActorHis] underwear, raising [ActorHis] passion.	[ActorInUnderwear] && [ActorHasVagina] && [ActorHasBoobs] == false		
Masturbate			Lamia		[ActorName] strokes and penetrates [ActorHis] [Pussy] with [ActorHis] fingers, giving in to pleasure.	[ActorNude] && [ActorHasVagina] && [ActorHasBoobs] == false		
Masturbate			Lamia		[ActorName] gropes [ActorHis] [Dick] and [Pussy] over the fabric of [ActorHis] clothes, building up heat.	[ActorFullyClothed] && [ActorHasVagina] && [ActorHasDick]		
Masturbate			Lamia		[ActorName] massages [ActorHis] [Dick] and fingers [ActorHis] [Pussy] over the thin fabric of [ActorHis] underwear, raising [ActorHis] passion.	[ActorInUnderwear] && [ActorHasVagina] && [ActorHasDick]		
Masturbate			Lamia		[ActorName] strokes [ActorHis] [Dick] and strokes and penetrates [ActorHis] [Pussy] with [ActorHis] fingers, giving in to pleasure.	[ActorNude] && [ActorHasVagina] && [ActorHasDick]		
Masturbate			Lamia		[ActorName] curls over and begins to partially feed [ActorHimself] to [ActorHis] own [Pussy]. trying to sate [ActorHis] multiple needs.	[ActorNude] && [ActorHasVagina] && s.Actor.Needs.Hunger > .7f && s.Actor.Personality.PreyWillingness > .6f		
Masturbate			Lamia		[ActorName] curls over an licks [ActorHis] own [Pussy]	[ActorNude] && [ActorHasVagina]		
Masturbate			Lamia		[ActorName]  curls in on [ActorHimself] and partially begins to feed [ActorHimself] to [ActorHis] own [Dick]. trying to sate [ActorHis] multiple needs.	[ActorNude] && [ActorHasDick] && s.Actor.Needs.Hunger > .7f && s.Actor.Personality.PreyWillingness > .6f		
Masturbate			Lamia		[ActorName] bends over and sucks [ActorHis] own [Dick]	[ActorNude] && [ActorHasDick]		
Masturbate			Lamia		[ActorName] inserts the tip of [ActorHis] tail into [ActorHis] [Pussy].	[ActorNude] && [ActorHasVagina]		
Masturbate			Lamia		[ActorName] holds [ActorHis] [Dick] in [ActorHis] hand and strokes it, while rubbing [ActorHis] [Breasts] driving [ActorHis] arousal.	[ActorNude] && [ActorHasDick] && [ActorHasBoobs]		
RubOwnBelly			Lamia		[ActorName] rubs [ActorHis] own big belly, feeling the bulges of multiple prey within.	[ActorBellySize] >= 1.5f		
RubOwnBelly			Lamia		[ActorName] gently rubs [ActorHis] own bulging gut, stretching to hold the people within it.	[ActorBellySize] >= 1.5f		
RubOwnBelly			Lamia		[ActorName] rubs [ActorHis] own big belly, feeling the bulges of the living prey within.	[ActorBellySize] >= 1 && [ActorBellySize] < 1.5f && [ActorHasLivingBellyPrey]		
RubOwnBelly			Lamia		[ActorName] rubs [ActorHis] own big belly, savoring [ActorHis] prey's movements in their gut.	[ActorBellySize] >= 1 && [ActorBellySize] < 1.5f && [ActorHasLivingBellyPrey]		
RubOwnBelly			Lamia		[ActorName] gently rubs [ActorHis] hands against [ActorHis] own bulging gut.	[ActorBellySize] >= 1 && [ActorBellySize] < 1.5f		
RubOwnBelly			Lamia		[ActorName] rubs [ActorHis] own belly, feeling the bulges of the melting prey within.	[ActorBellySize] >= .5f && [ActorBellySize] < 1		
RubOwnBelly			Lamia		[ActorName] gently rubs [ActorHis] hands against [ActorHis] bulging, but slowly shrinking gut.	[ActorBellySize] >= .5f && [ActorBellySize] < 1		
RubOwnBelly			Lamia		[ActorName] rubs [ActorHis] own belly, feeling the mostly melted prey within.	[ActorBellySize] < .5f		
RubOwnBelly			Lamia		[ActorName] gently rubs [ActorHis] hands against [ActorHis] slightly swollen gut.	[ActorBellySize] < .5f		
GrewBigger			Lamia		[ActorName] feels [ActorHimself] gain a little bit of extra curves as [ActorHe] absorbs the last of one of [ActorHis] prey.			
GrewBigger			Lamia		[ActorName] gets a surge of energy as [ActorHis] last meal fills their body.			
GrewBigger			Lamia		[ActorName] feels over [ActorHis] tail, feeling it plump up as it absorbs the last of one of [ActorHis] prey.			
GrewBigger			Lamia		All that remains of [ActorName]'s prey is absorbed into [ActorName], swelling their muscles.			
EventDisposalBathroom			Lamia		Finding an empty stall, [ActorName] drags their tail into the cramped space, lifting the end of their coils over the rim of the bowl to rid themselves of [TargetName]'s remains.	[DisposalEnabled] && s.Stage == 0		//Written by ZerHuskly
EventDisposalBathroom			Lamia		Squeezing their inner muscles, [ActorName] pucker widens as large ropes of shit exit and begin to fall into the toilet bowl.	[DisposalEnabled] && s.Stage == 1		//Written by ZerHuskly
EventDisposalBathroom			Lamia		[ActorName] barely has to pay attention at this point, checking [ActorHis] fingernails for any dirt, meanwhile more lumps of dung fall from [ActorHis] tail and into the pile growing in the bowl.	[DisposalEnabled] && s.Stage == 2		//Written by ZerHuskly
EventDisposalBathroom	1		Lamia		The sound of something hard impacting the inside of the toilet draws their attention, looking into the bowl reveals several intact bones embedded in the most recent log.	[DisposalEnabled] && s.Stage == 2 && [DisposalBonesEnabled]		//Written by ZerHuskly
EventDisposalBathroom			Lamia		As the last rope tapers off, [ActorName] slaps the toilet lever with the tip of [ActorHis] tail, listening as the commode chokes down the dump before slithering away to find something else to do.	[DisposalEnabled] && s.Stage == 3		//Written by ZerHuskly
EventDisposalGround			Lamia		[ActorName] feels a familiar twinge run down [ActorHis] body and [ActorHe] wearily eyes the lump at the end of [ActorHis] tail. It looks like the remains of [TargetName] are ready to come out. Moving their tail off to the side, [ActorName] lifts the end of it slightly off of the ground to expose the anal plate and begins to push.	[DisposalEnabled] && [ActorFullyClothed] && s.Stage == 0		//Written by ZerHuskly
EventDisposalGround			Lamia		[TargetName] begins to emerge as a fat coil of shit out of the end of [ActorName]'s tail. As the first log completely exits another follows soon after, [ActorName] sighing in relief as the tail lump starts to shrink.	[DisposalEnabled] && s.Stage == 1		//Written by ZerHuskly
EventDisposalGround			Lamia		Luckily for [ActorName], their dump continued at a quick pace, their digestive system had reduced [TargetName] to smooth dung that were easy enough to push out, [ActorName] only needing to adjust the height of their tail tip to make way for the growing pile.	[DisposalEnabled] && s.Stage == 2		//Written by ZerHuskly
EventDisposalGround	1		Lamia		[ActorName] winces in discomfort as something solid brushes along the inside of [ActorHis] rectum. Pushing harder reveals several logs embedded with numerous bones that survived the trip through [ActorHis] body.	[DisposalEnabled] && s.Stage == 2 && [DisposalBonesEnabled]		//Written by ZerHuskly
EventDisposalGround	1		Lamia		ActorName] squeezes out multiple logs filled with [TargetName]'s skeletal remains until they are suddenly stopped up, pushing harder reveals the crown of a skull straining against the inside of [ActorHis] asshole. [ActorName] has to squeeze [ActorHis] muscles in just the right way to get things moving along, feeling as well as hearing the pop as the skull was shot from [ActorHis] asshole, hitting the rest of [ActorHis] shit with a wet splat.	[DisposalEnabled] && s.Stage == 2 && [DisposalBonesEnabled]		//Written by ZerHuskly
EventDisposalGround			Lamia		Little else proved difficult from then on and [ActorName] was left with a huge pile of fertilizer and a feeling of weightlessness in [ActorHis] tail. [ActorName] briefly looked at the large shit pile that [TargetName] had been reduced to, and slithered off to do other things, leaving the steaming heap for someone else to discover and deal with.	[DisposalEnabled] && s.Stage == 3		//Written by ZerHuskly
								
								
//Interactions								
Meet			Lamia	Lamia	Surprised to see another lamia, [ActorName] slithers over to meet [TargetName].			//Written by ZerHuskly
Meet			Lamia		[ActorName] introduced [ActorHimself] to [TargetName].			
Meet			Lamia		[ActorName] met [TargetName] for the first time.			
Talk	2		Lamia		[ActorName] talked with [TargetName].	[TargetFullyClothed] || s.Actor.Personality.SexDrive < Rand.NextFloat(0, 1) || [ActorLikesTargetGender] == false	Yes	
Talk	1		Lamia		[ActorName] talked with [TargetName], but [ActorHis] eyes couldn't resist scanning [TargetName]'s underwear.	[TargetInUnderwear]	Yes	
Talk	1		Lamia		[ActorName] talked with [TargetName], but [ActorHis] eyes couldn't resist observing [TargetName]'s nude body.	[TargetNude]	Yes	
Talk			Lamia		[TargetName] refused to talk with [ActorName].		No	
AskWait			Lamia		[ActorName] convinced [TargetName] to wait where they are.		Yes	
AskWait			Lamia		[TargetName] refused to wait around for [ActorName].		No	
Flirt			Lamia		[ActorName] flirted with [TargetName].	[ActorFullyClothed] || s.Actor.Personality.SexDrive < Rand.NextFloat(0, 1)	Yes	
Flirt			Lamia		[ActorName] flirted with [TargetName], giving a quick spin to show off [ActorHis] underwear.	[ActorInUnderwear]	Yes	
Flirt			Lamia		[ActorName] flirted with [TargetName], enjoying the attention on [ActorHis] nude body.	[ActorNude]	Yes	
Flirt			Lamia		[ActorName] cups [ActorHis] boobs suggestively at [TargetName], drawing their gaze.	[ActorHasBoobs]	Yes	
Flirt			Lamia		[ActorName] flirted with [TargetName], Commenting on how nicely [TargetName]'s underwear hugs [TargetHis] body.	[TargetInUnderwear]	Yes	Added by Flame_Valxsarion
Flirt			Lamia		[ActorName] flirted with [TargetName], enjoying the way [TargetName] flaunts [TargetHis] nude body.	[TargetNude]	Yes	Added by Flame_Valxsarion
Flirt			Lamia		[TargetName] rejected the flirting of [ActorName].		No	
FriendlyHug			Lamia		[ActorName] gave [TargetName] a quick, friendly hug.	[ActorNude] == false	Yes	
FriendlyHug			Lamia		[TargetName] was unsure about being hugged by the nude [ActorName], but decided to allow it.	[ActorNude] && [TargetRomanticTowardActor] < .25f	Yes	
FriendlyHug			Lamia		[TargetName] was happy to be hugged by the nude [ActorName], but slightly disappointed it was only a friendly hug.	[ActorNude] && [TargetLikesActorGender]	Yes	
FriendlyHug			Lamia		[TargetName] hugs [ActorName], while [ActorHis] wriggling tail lies around them.	[ActorBellySize] >= 1 && [ActorBellySize] < 1.5f && [ActorHasLivingBellyPrey]	Yes	
FriendlyHug			Lamia		[TargetName] rejected a friendly hug from [ActorName].		No	
Hug			Lamia		[ActorName] Wraps [ActorHis] tail around [TargetName] in an intimate hug.			
Hug			Lamia		[ActorName] squeezes [TargetName] tightly in a romantic hug, and rubs [ActorHis] cheek against [TargetName]'s cheek.	[ActorNude] == false	Yes	
Hug			Lamia		[ActorName] squeezes [TargetName] tightly in a romantic hug, and rubs [ActorHis] hands up and down [TargetName]'s back.	[ActorNude] == false	Yes	
Hug			Lamia		[ActorName] squeezes [TargetName] tightly in a romantic hug, and rubs [ActorHis] nude body against [TargetHim].	[ActorNude]	Yes	
Hug			Lamia		[ActorName] holds [TargetName] tightly in a romantic hug, pressing [ActorHis] [Breasts] against [TargetHis] chest.	[ActorHasBoobs] && [TargetHasBoobs] == false	Yes	
Hug			Lamia		[ActorName] holds [TargetName] tightly in a romantic hug, their [Breasts] pressed against each other.	[ActorHasBoobs] && [TargetHasBoobs]	Yes	
Hug			Lamia		[TargetName] hugs [ActorName], squishing [ActorHis] wriggling gut between them, enjoying the feeling of closeness as they squeeze together.	[ActorBellySize] >= 1 && [ActorBellySize] < 1.5f && [ActorHasLivingBellyPrey]	Yes	
Hug			Lamia		[TargetName] rejected a romantic hug from [ActorName].		No	
ComplimentAppearance			Lamia		Ah, you're looking quite sexy there, [TargetName] [ActorName] says.		Yes	
ComplimentAppearance			Lamia		Looking very good, [TargetName] [ActorName] can't help but comment on [TargetHis] appearance.		Yes	
ComplimentAppearance			Lamia		[ActorName] starts to say how good they think [TargetName] looks, but [TargetName] cuts them off and doesn't want to hear it at the moment.		No	
SexPartnerEaten			Lamia		[PredatorOfTarget], what the hell!? You didn't even want to wait until after [TargetName] and I finished having sex? yells [ActorName].			
SexPartnerEaten			Lamia		For god's sake [PredatorOfTarget], you seriously had to eat [TargetName] while we were in the middle of having sex?! yells [ActorName].			
SexPartnerEaten			Lamia		[ActorName] glares at [PredatorOfTarget] with a mixture of shock and anger as [PredatorOfTarget] begins eating [ActorName]'s sex partner, [TargetName].			
SexPartnerEaten			Lamia		Really, [PredatorOfTarget], I was going to do that to [TargetName] after we finished! yelled [ActorName].	[ActorCanVore]		
SexPartnerEaten			Lamia		Well [PredatorOfTarget], could you at least send me in after [TargetName] so we can continue? asked [ActorName]	[ActorGenerallyWilling]		
SexPartnerEaten			Lamia	Lamia	If you're going to eat [TargetName], [PredatorOfTarget], then how about you have two snakes slithering inside you? Asked [ActorName]			
Taste			Lamia		[ActorName] gives [TargetName] a quick lick with [ActorHis] tongue. "Um, when was the last time you showered again?... You may want to reset that timer."	s.Target.Needs.Cleanliness > 0.7	Yes	
Taste			Lamia		[ActorName] gives [TargetName] a short lick with [ActorHis] tongue. "Um, i don't mind a little flavor, but you may want to consider a shower to tone it down just a little."	s.Target.Needs.Cleanliness > 0.7	Yes	
Taste			Lamia		[ActorName] gives [TargetName] a quick lick with [ActorHis] tongue.  "Oh, you taste pretty good, looking forward to tasting a bit more."		Yes	
Taste			Lamia		[ActorName] gives [TargetName]'s neck a slow lick with [ActorHis] tongue.  "Oh, that's good, hope I get a chance to taste another part of you later."		Yes	
Taste			Lamia		[ActorName] gives [TargetName] a quick lick with [ActorHis] tongue. "Hmm, i can't tell if that fruity flavor is you or your shower soap. Either way, you taste really good."	s.Target.Needs.Cleanliness < 0.1	Yes	
Taste			Lamia		[ActorName] gives [TargetName] a short lick with [ActorHis] tongue. "Wow, you've got to be the cleanest one i've ever tasted! I hope this isn't the only time i get to do this."	s.Target.Needs.Cleanliness < 0.1	Yes	
Taste			Lamia		[ActorName] moves in to try and taste [TargetName] but [TargetName] pulls away, not seeming to be interested in that at the moment.		No	
PreyWillingSquirm			Lamia		[ActorName]'s coils can be seen squirming inside of [TargetName].			
PreyWillingSquirm				Lamia	[ActorName] can be seen wriggling against the surface of [TargetName]'s scales, their [WaistAdjective] butt leaving the most prominent outline.	[ActorNude] && [ActorIsInTargetWomb] || [ActorIsInTargetStomach] || [ActorIsInTargetBowels]		//Written by ZerHuskly
PreyWillingSquirm				Lamia	[ActorName] can be seen wriggling against the surface of [TargetName]'s scales, their [ActorBoobSize] boobs leaving the most prominent outline.	[ActorHasBoobs] && [ActorNude] && [ActorIsInTargetWomb] || [ActorIsInTargetStomach] || [ActorIsInTargetBowels]		//Written by ZerHuskly
PreyWillingSquirm				Lamia	[ActorName]'s movements cannot be discerned amidst the numerous other squirming forms bloating out [TargetName]'s coils.	[TargetHasLivingBellyPrey]		//Written by ZerHuskly
Compliment				Lamia	Wow, [TargetName], your scales are so pretty. [ActorName] says.		Yes	
Compliment			Lamia		[ActorName] tells [TargetName] they like their hair.		Yes	
Compliment			Lamia		[ActorName] tells [TargetName] that [ActorHe] think[SIfActorSingular] they are nice.		Yes	
Compliment			Lamia		[ActorName] compliments [TargetName], but [TargetName] feels [ActorName]'s words are hollow.		No	
Compliment			Lamia		[ActorName] compliments [TargetName]'s predatory abilities.	[TargetBellySize] >= 1.0f || [TargetBallsSize] >= 1.0f	Yes	
Insult			Lamia		[ActorName] ridicules [TargetName]'s hair.			
Insult			Lamia		[ActorName] makes fun of [TargetName]'s body.			
Insult			Lamia		[ActorName] insults [TargetName]'s intelligence.			
Insult				Lamia	[ActorName] makes fun of [TargetName]'s scale pattern.			
RubBelly			Lamia		[ActorName] rubs [TargetName]'s big belly, feeling the bulges of multiple prey within.	[TargetBellySize] >= 1.5f	Yes	
RubBelly			Lamia		[ActorName] gently rubs [ActorHis] hands against [TargetName]'s bulging gut, stretching to hold the people within it.	[TargetBellySize] >= 1.5f	Yes	
RubBelly			Lamia		[ActorName] rubs [TargetName]'s big belly, feeling the bulges of the living prey within.	[TargetBellySize] >= 1 && [TargetBellySize] < 1.5f && [TargetHasLivingBellyPrey]	Yes	
RubBelly			Lamia		[ActorName] massages [TargetName]'s bulging belly, feeling their live prey squirming about inside.	[TargetBellySize] >= 1 && [TargetBellySize] < 1.5f && [TargetHasLivingBellyPrey]	Yes	
RubBelly			Lamia		[ActorName] gently rubs [ActorHis] hands against [TargetName]'s bulging gut.	[TargetBellySize] >= 1 && [TargetBellySize] < 1.5f	Yes	
RubBelly			Lamia		[ActorName] rubs [TargetName]'s belly, feeling the bulges of the melting prey within.	[TargetBellySize] >= .5f && [TargetBellySize] < 1	Yes	
RubBelly			Lamia		[ActorName] gently rubs [ActorHis] hands against [TargetName]'s bulging, but slowly shrinking gut.	[TargetBellySize] >= .5f && [TargetBellySize] < 1	Yes	
RubBelly			Lamia		[ActorName] rubs [TargetName]'s belly, feeling the mostly melted prey within.	[TargetBellySize] < .5f	Yes	
RubBelly			Lamia		[ActorName] gently rubs [ActorHis] hands against [TargetName]'s slightly swollen gut.	[TargetBellySize] < .5f	Yes	
RubBelly			Lamia		[TargetName] refuses to let [ActorName] rub [TargetHis] belly.		No	
AskToBeOralVoredEndo			Lamia		"Hey [TargetName], mind if I slither around your stomach for a bit?" [ActorName] asks. "Of course I don't mind, come here." [TargetName] says as they begin to swallow [ActorName]		Yes	
								
//Vore Process Related								
OralBegin			Lamia		[TargetName] is suddenly wrapped up in [ActorName]'s coils unable to move. All [TargetHe] can do now is watch as [ActorName] descends upon them with jaws spread wide.			//Written by ZerHuskly
OralBegin			Lamia		[ActorName]'s tail suddenly shoots out and makes [TargetName] loose their footing and quickly envelops them in the process. Satisfied with [ActorHis] catch, [ActorName] brings [ActorHis] prey closer and begins unhinging [ActorHis] jaw in order to consume them.			//Written by ZerHuskly
OralBegin			Lamia	Lamia	A brief struggle ensues between [ActorName] and [TargetName] as they fight for dominance. Eventually [ActorName] comes out on top with the defeated lamia subdued in [ActorHis] [ActorCustom-Scale Color] coils, and [ActorName] quickly gets ready to swallow [TargetName] before the large meal can put up any more resistance.			//Written by ZerHuskly
OralBegin			Lamia		[ActorName]'s stomach growls hungrily as [ActorHe] grabs [TargetName] firmly and pulls [TargetHim] close. [ActorName] licks [ActorHis] lips before opening their salivating mouth wide.	s.Actor.Needs.Hunger > .5f && [ActorDigestsPrey]		
UnbirthBegin			Lamia		[ActorName] grabs [TargetName] by the head and forces [TargetName]'s face down to their pussy, moaning as they prepare to shove them in.			
UnbirthBegin			Lamia		[ActorName] doesn't waste any time and presses their [Pussy] against [TargetName]'s head before starting to draw [TargetHim] inside.			
UnbirthBegin			Lamia		Wrapped up in [ActorName]'s coils, [TargetName] is brought face-to-crotch with [ActorHis] slick [Pussy], [ActorName] proceeds to lightly hump against [TargetHis] face to prepare them to be forced into [ActorHis] needy hole.			//Written by ZerHuskly
CockVoreBegin			Lamia		[TargetName] is forced to their knees, putting them face to face with [ActorName]’s enlarged [Dick].			
CockVoreBegin			Lamia		Wrapped up in [ActorName]'s coils, [TargetName] is brought face-to-crotch with [ActorHis] [ActorDickSize] [Dick] that is growing even larger by the second. As it encompasses their entire view, [ActorName] brushes it up against [TargetHis] face to smear it with pre-cum to lube them up for insertion.			
CockVoreBegin			Lamia		[TargetName] is shocked to see [ActorName] looming over them with a throbbing [Dick] in hand.			
CockVoreBegin			Lamia		[ActorName] grins holding their swelling [Dick]. "I think you know what's next, [TargetName]."			
CockVoreBegin			Lamia		Helpless to resist [TargetName] is held tightly as [ActorName] let's their [Dick] grow. "Sorry but my [Dick] needs some attention. You don't mind do you?"			
AnalVoreBegin			Lamia		Tightly bound up with [ActorName]'s tail, [TargetName] watches as [ActorHe] turns around and begins to lower themselves onto [TargetHis] head. As [ActorName]'s [WaistAdjective] humanoid ass smushes against their face, they catch a glimpse of [ActorHis] [Anus] nestled tightly between [ActorHis] cheeks.			
AnalVoreBegin			Lamia		[ActorName] suddenly tackles [TargetName], knocking them to the ground, subduing them into a position where [TargetName] is on their knees and [ActorName]’s bare ass is situated atop their head.			
AnalVoreBegin			Lamia		[ActorName] grabs [TargetName] and forces [TargetHim] to [TargetHis] knees, then abruptly presses [ActorName]'s bare ass down on top of [TargetName]'s head.			
InStomach	4	0.25	Lamia		The shape of [TargetName]'s form is clearly visible beneath [ActorName]'s stretched [ActorCustom-Scale Color] scales.	s.Target.Health > Constants.HealthMax * .6f		
InStomach	4	0.25	Lamia		[TargetName]'s body is tightly contained within [ActorName]'s tail, [TargetHis] [WaistAdjective] ass leaving a noticeable bump beneath the snake scales.	s.Target.Health > Constants.HealthMax * .6f && [TargetNude]		// Written by ZerHuskly
InStomach	4	0.25	Lamia		[TargetName] is left to writhe helplessly in the noxious sludge of [ActorName]'s rancid and messy stomach. The fleshy chamber clenches down over [TargetName]'s body to push [TargetHis] face and chest into heavy goop pooling at the bottom of the chamber.	s.Target.Health > Constants.HealthMax * .6f		// Written by ZerHuskly
InStomach	4	0.25	Lamia		Trapped inside the snake tail, [TargetName]'s shapely form contorts to the sways of [ActorName]'s movements, [TargetHis] [TargetBoobSize] breasts leaving a noticeable bulge the [ActorCustom-Scale Color] scales.	s.Target.Health > Constants.HealthMax * .6f && [TargetNude]  && [TargetHasBoobs]		// Written by ZerHuskly
InStomach	3	0.25	Lamia		[TargetName] continues to jab and squirm, making [ActorName]'s tail slosh and jostle as [ActorHis] digestive system begin pulverizing its victim.	s.Target.Health > Constants.HealthMax * .2f		// Written by ZerHuskly
InStomach	3	0.25	Lamia		Looking back down at [ActorHis] tail, [ActorName] sees [TargetName]'s naked body almost perfectly outlined, suffocated and churning away inside [ActorHim].	s.Target.Health > Constants.HealthMax * .2f && [TargetNude]		// Written by ZerHuskly
InStomach	3	0.25	Lamia		Tightly constrained within [ActorName]'s coils, [TargetName] can do little but squirm in place as acidic fluids pool around [TargetHim] and eat away at [TargetHis] body.	s.Target.Health > Constants.HealthMax * .2f		// Written by ZerHuskly
InStomach	3	0.25	Lamia		Constantly splashed with enzymes, [TargetName] finds themselves squeezed deeper into [ActorName]'s snake stomach by the organs's powerful muscles.	s.Target.Health > Constants.HealthMax * .2f		// Written by ZerHuskly
InStomach	2	0.25	Lamia		[TargetName] is gasping for air as [ActorName]'s stomach acids submerge their body,  [TargetHe] can already feel [TargetHis] skin getting soft to the touch.	s.Target.Health > 0		// Written by ZerHuskly
InStomach	2	0.25	Lamia		Time becomes meaningless as [TargetName] slowly asphyxiates, throbbing in agony as [ActorName]'s stomach acids flowing all around [TargetHim] dig in.	s.Target.Health > 0		// Written by ZerHuskly
InStomach	2	0.25	Lamia		Subjected to the gastric symphony of [ActorName]'s stomach as it slowly pummels over [TargetHis] squirming form, digestive fluids flooding over [TargetName]'s body, threatening to drown [TargetHis].	s.Target.Health > 0		// Written by ZerHuskly
InStomach	2	0.25	Lamia		A pained whimper escapes [TargetName] as [TargetHe] feels [TargetHis] body coming apart under the onslaught of digestion. The slimy surroundings rumble as [TargetHis] body lies in a tangled, clumsy heap—forced to follow the haphazard sprawl of [ActorName]'s coils.	s.Target.Health > 0		// Written by ZerHuskly
InStomach	2	0.25	Lamia		[ActorName]'s strong stomach muscles tightly clench around [TargetName], squeezing the life out of [TargetHim], intending to grind them into a nutritious slop.	s.Target.Health > 0		// Written by ZerHuskly
InStomach	1	0.25	Lamia		The motionless bulge where [TargetName] resides beneath [ActorName]'s scales is smoothing out, wet gluts of [ActorHis] muscles contracting and rippling around the remains to break them down.	s.Target.Health > Constants.EndHealth / 2 && [DisposalBonesEnabled]		// Written by ZerHuskly
InStomach	1	0.25	Lamia		[ActorName]'s muscles roll across [TargetName]'s corpse in slow, undulating motions. Over time, acids will strip [TargetHim] of skin and meat until there's nothing but mush and bone.	s.Target.Health > Constants.EndHealth / 2 && [DisposalBonesEnabled]		// Written by ZerHuskly
InStomach	1	0.25	Lamia		[TargetName] lies face-down in a messy mulch of caustic slurry; [TargetHis] body limp and lifeless.	s.Target.Health > Constants.EndHealth / 2 && [DisposalBonesEnabled]		// Written by ZerHuskly
InStomach	1	0.25	Lamia		A muffled wet crunch can be heard as [TargetName]'s body is further rendered into a formless slop.	s.Target.Health > Constants.EndHealth / 2 && [DisposalBonesEnabled]		// Written by ZerHuskly
InStomach	1	0.25	Lamia		Stomach walls ripple across the lifeless [TargetName] with such force that [TargetHis] bones collapse. [ActorName] can hear the muffled crunch, followed by wet squelching sounds as the meal churns into nothing.	s.Target.Health > Constants.EndHealth / 2 && [DisposalBonesEnabled]		// Written by ZerHuskly
InStomach	1	0.25	Lamia		The outline of [TargetName]'s lifeless body begins loosing its definition as [ActorName]'s acids dig in with earnest to break down [TargetHis] meat into nutrients.	s.Target.Health > Constants.EndHealth / 2		// Written by ZerHuskly
InStomach	0	0.25	Lamia		As [TargetName]'s mulched remains gush through the rest of [ActorName]'s tail , [ActorHe] can hear the slow crackle of [TargetName]'s bones breaking—made brittle from [TargetHis] long stay in [ActorHis] caustic soup.	[DisposalBonesEnabled]		
InStomach	0	0.25	Lamia		[ActorName]'s intestines suck in some of the mush that used to be [TargetName]. Broken bones clack and grind amid the goop that contains them as the mess gathers into a lump at the very end of [ActorHis] tail.	[DisposalBonesEnabled]		
InStomach	0	0.25	Lamia		A lumpy bulge now resides at the end of [ActorName]'s tail, the distinctive shape of a skull pressing up against [ActorHis] scales, piled together with even more bones that used to belong to [TargetName].	[DisposalBonesEnabled]		
								
//Relating to Body Parts								
HeadDescription				Lamia	[TargetName]'s snake like [TargetEyeColor] eyes shine, and [TargetHeHas] [TargetHairLength] [TargetHairStyle] [TargetHairColor] hair.			
TorsoDescription				Lamia	[ActorHisCapitalized] bra is the only cover for [TargetHis] [TargetBoobSize] boobs, leaving little to the imagination.	[TargetHasBoobs] && [TargetInUnderwear]		
TorsoDescription				Lamia	[ActorHisCapitalized] [TargetBoobSize] boobs are completely open to the air.	[TargetHasBoobs] && [TargetNude]		
TorsoDescription	1			Lamia	[ActorHisCapitalized] top completely covers [TargetHis] torso, leaving the outlines from [TargetHis] [TargetBoobSize] boobs.	[TargetHasBoobs] && [TargetFullyClothed]		
TorsoDescription	1			Lamia	[ActorHisCapitalized] shirt completely covers [TargetHis] chest.	[TargetHasBoobs] == false && [TargetFullyClothed]		
TorsoDescription	0			Lamia	[ActorHisCapitalized] bare chest is fully visible, showing off [TargetHis] upper body.	[TargetHasBoobs] == false		
WaistDescription				Lamia	Clothing covers [TargetHis] [WaistAdjective] hips, where their humanoid half transitions to a lengthily [TargetCustom-Scale Color] snake tail with a [TargetCustom-Pattern Color] [TargetCustom-Scale Pattern] pattern adorning it.	[TargetFullyClothed]		
WaistDescription				Lamia	Custom made underwear hides their nethers from view, and their [WaistAdjective] hips shift to a lengthily [TargetCustom-Scale Color] snake tail with a [TargetCustom-Pattern Color] [TargetCustom-Scale Pattern] pattern adorning it.	[TargetHasVagina] && [TargetInUnderwear]		
WaistDescription				Lamia	Their bare pussy is nestled amidst the groove where smooth skin meets scales, and their [WaistAdjective] hips morph into a lengthily [TargetCustom-Scale Color] snake tail with a [TargetCustom-Pattern Color] [TargetCustom-Scale Pattern] pattern adorning it.	[TargetNude]		
WaistDescription				Lamia	They are wearing modified boxers that hide their [Dick] from view, and their [WaistAdjective] hips shift to a lengthily [TargetCustom-Scale Color] snake tail with a [TargetCustom-Pattern Color] [TargetCustom-Scale Pattern] pattern adorning it.	[TargetHasDick] && [TargetInUnderwear]		
WaistDescription				Lamia	[ActorHisCapitalized] [ActorDickSize] cock juts proudly from [Targethis] [WaistAdjective] hips, which morphs into a lengthily [TargetCustom-Scale Color] snake tail with a [TargetCustom-Pattern Color] [TargetCustom-Scale Pattern] pattern adorning it.	[TargetHasDick] && [TargetNude]		
WaistOralVore	5		Lamia		[ActorName] swallows [TargetName]'s [WaistAdjective] waist, feeling disappointed that [TargetName]'s clothes prevent [ActorHim] from tasting their [Pussy].	[TargetHasVagina] && [TargetFullyClothed] && [ActorLikesTargetGender]		
WaistOralVore	5		Lamia		[ActorName] gulps down [TargetName]'s [WaistAdjective] hips, wishing more than ever that [TargetName] wasn't clothed right now.	[TargetHasVagina] && [TargetFullyClothed] && [ActorLikesTargetGender]		
WaistOralVore	5		Lamia		[ActorName] has some trouble getting [TargetName]'s [WaistAdjective] hips down, giving [ActorHim] more time to think about how unfortunate it is that [TargetName] is clothed.	[TargetHasVagina] && [TargetFullyClothed] && [ActorLikesTargetGender]		
WaistOralVore	4		Lamia		[ActorName] swallows [TargetName]'s [WaistAdjective] waist, finding the taste of [TargetName]'s clothes unsatisfying but not caring about what lies beyond them.	[TargetHasVagina] && [TargetFullyClothed]		
WaistOralVore	4		Lamia		[ActorName] gulps down [TargetName]'s [WaistAdjective] hips, getting the hardest part of [ActorHis] meal over with.	[TargetHasVagina] && [TargetFullyClothed]		
WaistOralVore	4		Lamia		[ActorName] has some trouble getting [TargetName]'s [WaistAdjective] hips down, not overly bothered that [TargetName] is clothed.	[TargetHasVagina] && [TargetFullyClothed]		
WaistOralVore	3		Lamia		[ActorName] swallows [TargetName]'s [WaistAdjective] waist, licking the front of [TargetName]'s underwear while wishing for a taste of what's just beyond it.	[TargetHasVagina] && [TargetInUnderwear] && [ActorLikesTargetGender]		
WaistOralVore	3		Lamia		[ActorName] gulps down [TargetName]'s [WaistAdjective] hips, tasting the skin around [TargetName]'s underwear with [ActorHis] eager tongue, craving a taste of their [Pussy].	[TargetHasVagina] && [TargetInUnderwear] && [ActorLikesTargetGender]		
WaistOralVore	3		Lamia		[ActorName] has some trouble getting [TargetName]'s [WaistAdjective] hips down, giving more time to use [ActorHis] tongue to tease [TargetName]'s [Pussy] through the thin fabric of their underwear.	[TargetHasVagina] && [TargetInUnderwear] && [ActorLikesTargetGender]		
WaistOralVore	2		Lamia		[ActorName] swallows [TargetName]'s [WaistAdjective] waist, not bothered in the least that [TargetName]'s underwear is covering their groin.	[TargetHasVagina] && [TargetInUnderwear]		
WaistOralVore	2		Lamia		[ActorName] gulps down [TargetName]'s [WaistAdjective] hips, getting the hardest part of [ActorHis] meal over with.	[TargetHasVagina] && [TargetInUnderwear]		
WaistOralVore	2		Lamia		[ActorName] has some trouble getting [TargetName]'s [WaistAdjective] hips down, causing the front of [TargetName]'s underwear to linger in [ActorHis] mouth, but [ActorName] has no interest in what it's covering.	[TargetHasVagina] && [TargetInUnderwear]		
WaistOralVore	1		Lamia		[ActorName] swallows [TargetName]'s [WaistAdjective] waist, using [ActorHis] tongue to tease [TargetName]'s [Pussy].	[TargetHasVagina] && [ActorLikesTargetGender]		
WaistOralVore	1		Lamia		[ActorName] gulps down [TargetName]'s [WaistAdjective] hips, pleased with the feeling of [TargetName]'s [Pussy] dragging across [ActorHis] tongue.	[TargetHasVagina] && [ActorLikesTargetGender]		
WaistOralVore	1		Lamia		[ActorName] has some trouble getting [TargetName]'s [WaistAdjective] hips down, causing [TargetName]'s [Pussy] to stop on their tongue, allowing a little extra time to play with it.	[TargetHasVagina] && [ActorLikesTargetGender]		
WaistOralVore	1		Lamia		[TargetName] feet kick wildly as [ActorName]'s mouth covers [TargetHis] [WaistAdjective] waist, while [ActorHis] tongue tastes [TargetName]'s [Pussy].	[TargetHasVagina] && [ActorLikesTargetGender]		
WaistOralVore			Lamia		[ActorName] swallows [TargetName]'s [WaistAdjective] hips, getting the hardest part over with.	[TargetHasVagina]		
WaistOralVore			Lamia		[ActorName] gulps down [TargetName]'s [WaistAdjective] waist, not giving any attention to [TargetHis] groin.	[TargetHasVagina]		
WaistOralVore			Lamia		[ActorName] has some trouble getting [TargetName]'s [WaistAdjective] hips down, causing [TargetName]'s privates to remain in [ActorHis] mouth, but they aren't interested in them.	[TargetHasVagina]		
WaistOralVore			Lamia		[TargetName] feet kick wildly as [ActorName]'s mouth covers [TargetHis] [WaistAdjective] waist, [TargetHis] struggles to break free in vain.	[TargetHasVagina] && [TargetWillingPrey] == false		
WaistOralVore	5		Lamia		[ActorName] swallows [TargetName]'s [WaistAdjective] waist, quite disappointed that [ActorHis] tongue is denied access to [TargetName]'s [TargetDickSize] [Dick] by their clothing.	[TargetHasDick] && [TargetFullyClothed] && [ActorLikesTargetGender]		
WaistOralVore	5		Lamia		[ActorName] gulps down [TargetName]'s [WaistAdjective] hips, [ActorHis] tongue probing the [TargetDickSize] bulge of [TargetName]'s [Dick], desiring access to it through their clothes but finding none.	[TargetHasDick] && [TargetFullyClothed] && [ActorLikesTargetGender]		
WaistOralVore	5		Lamia		[ActorName] has some trouble getting [TargetName]'s [WaistAdjective] hips down, the enticing bulge of [ActorHis] prey's [TargetDickSize] [Dick] settles teasingly on [ActorHis] eager tongue briefly, but yields only the disappointing taste of fabric because [TargetName]'s clothes are in the way.	[TargetHasDick] && [TargetFullyClothed] && [ActorLikesTargetGender]		
WaistOralVore	4		Lamia		[ActorName] swallows [TargetName]'s [WaistAdjective] waist, thinking to [ActorHimself] that there is at least one small upside to clothed prey, as [TargetName]'s clothing prevents any unwanted contact between [ActorName]'s tongue and [ActorHis] prey's [Dick].	[TargetHasDick] && [TargetFullyClothed]		
WaistOralVore	4		Lamia		[ActorName] gulps down [TargetName]'s [WaistAdjective] hips, thankful that [TargetHis] clothing keeps them from having to taste [TargetHis] [TargetDickSize] [Dick].	[TargetHasDick] && [TargetFullyClothed]		
WaistOralVore	4		Lamia		[ActorName] has some trouble getting [TargetName]'s [WaistAdjective] hips down, completely ignoring the [TargetDickSize] bulge in [TargetName]'s lower clothing as it lingers on [ActorName]'s tongue.	[TargetHasDick] && [TargetFullyClothed]		
WaistOralVore	3		Lamia		[ActorName] swallows [TargetName]'s [WaistAdjective] waist, tracing [ActorHis] tongue around the enticing bulge of [TargetName]'s [TargetDickSize] [Dick] in their underwear.	[TargetHasDick] && [TargetInUnderwear] && [ActorLikesTargetGender]		
WaistOralVore	3		Lamia		[ActorName] gulps down [TargetName]'s [WaistAdjective] hips, enjoying the feeling of the [TargetDickSize] bulge of [TargetName]'s [Dick] dragging across [ActorHis] tongue, but wishing that their underwear wasn't in the way.	[TargetHasDick] && [TargetInUnderwear] && [ActorLikesTargetGender]		
WaistOralVore	3		Lamia		[ActorName] has some trouble getting [TargetName]'s [WaistAdjective] hips down, giving [ActorHim] time to tease [TargetName]'s [TargetDickSize] [Dick] through their underwear with [ActorHis] tongue..	[TargetHasDick] && [TargetInUnderwear] && [ActorLikesTargetGender]		
WaistOralVore	2		Lamia		[ActorName] swallows [TargetName]'s [WaistAdjective] waist, pleased that [TargetName]'s underwear allow them to not have to taste [TargetHis] [TargetDickSize] [Dick].	[TargetHasDick] && [TargetInUnderwear]		
WaistOralVore	2		Lamia		[ActorName] gulps down [TargetName]'s [WaistAdjective] hips, ignoring the [TargetDickSize] bulge in [TargetName]'s underwear as it slides across [ActorHis] tongue.	[TargetHasDick] && [TargetInUnderwear]		
WaistOralVore	2		Lamia		[ActorName] has some trouble getting [TargetName]'s [WaistAdjective] hips down, causing them to have to feel the unwanted [TargetDickSize] bulge in [TargetName]'s underwear on their tongue for longer than they would like.	[TargetHasDick] && [TargetInUnderwear]		
WaistOralVore	1		Lamia		[ActorName] swallows [TargetName]'s [WaistAdjective] waist, using [ActorHis] tongue to tease [TargetName]'s [TargetDickSize] member and [ActorHis] [TargetBallSize] [Balls].	[TargetHasDick] && [ActorLikesTargetGender]		
WaistOralVore	1		Lamia		[ActorName] gulps down [TargetName]'s [WaistAdjective] hips, pleased with the feeling of [TargetName]'s [TargetBallSize] [Balls] and [TargetDickSize] cock dragging across [ActorHis] tongue.	[TargetHasDick] && [ActorLikesTargetGender]		
WaistOralVore	1		Lamia		[ActorName] has some trouble getting [TargetName]'s [WaistAdjective] hips down, causing [TargetName]'s [TargetBallSize] [Balls] and [TargetDickSize] dick to stall on their tongue, allowing a little extra time to play with it.	[TargetHasDick] && [ActorLikesTargetGender]		
WaistOralVore			Lamia		[ActorName] swallows [TargetName]'s [WaistAdjective] waist, trying to avoid thinking about the [TargetDickSize] dick that [ActorHeHas] no interest in.	[TargetHasDick]		
WaistOralVore			Lamia		[ActorName] gulps down [TargetName]'s [WaistAdjective] waist, the rest should be easy from there.	[TargetHasDick]		
WaistOralVore			Lamia		[ActorName] has some trouble getting [TargetName]'s [WaistAdjective] hips down, causing [TargetName]'s [TargetBallSize] [Balls] and [TargetDickSize] cock to stall on [TargetHis] tongue, much to the dismay of [ActorName].	[TargetHasDick]		
WaistOralVore			Lamia		[ActorName] tries to gulp down [TargetName]'s [WaistAdjective] hips as quickly as possible, wanting to limit the amount of time they are forced to taste [TargetHis] [TargetBallSize] [Balls] and [TargetDickSize] [Dick].	[TargetHasDick]		
WaistOralVore	10			Lamia	Swallowing across [TargetName]'s [WaistAdjective] hips, [ActorName] briefly eyes the length of [TargetCustom-Scale Color] snake tail now hanging from [ActorHis] mouth. Filled with determination, [ActorName] gulps down the rest of [TargetName]'s upper half down [ActorHis] gullet and begins the arduous process of consuming [TargetHis] serpentine half.			//Written by ZerHuskly
WaistOralVore	10			Lamia	[ActorName] swallows [TargetName]'s [WaistAdjective] waist, no longer tasting skin, but [TargetHis] [TargetCustom-Scale Type] scales.			
WaistUnbirth			Lamia		[ActorName]'s [Pussy] draws in [TargetName]'s [WaistAdjective] hips, getting the hardest part over with.	[TargetHasVagina]		
WaistUnbirth			Lamia		[TargetName]'s [WaistAdjective] waist is drawn into [ActorName]'s [Pussy] as [TargetHis] [TargetDickSize] [Dick] is pulled inside.	[TargetHasDick]		
WaistUnbirth			Lamia		[ActorName] winces as [TargetName]'s [WaistAdjective] waist is drawn into [ActorHis] [Pussy], but overcomes the ordeal.			
WaistUnbirth	10			Lamia	[ActorName]'s [Pussy] draws in [TargetName]'s [WaistAdjective] hips, feeling the skin transition to scales.			
WaistUnbirth	10			Lamia	[ActorName]'s [Pussy] gapes around [TargetName]'s [WaistAdjective] hips and continue to do so as their [TargetCustom-Scale Color] tail begins to be taken into [ActorHis] folds.			//Written by ZerHuskly
WaistCockVore			Lamia		Approaching [TargetName]’s [WaistAdjective] hips, [ActorName] aims [ActorHis] [Dick] skyward, using gravity to help pull [TargetHis] hips inside.			
WaistCockVore			Lamia		[ActorName] smiles watching [TargetName]'s bubble butt slowly disappear inside of their [Dick].			
WaistCockVore			Lamia		[ActorName] plays with [TargetName]'s [Dick] and [Balls] before their genitals slip inside of a real Pred's [Dick].	[TargetHasDick]		
WaistCockVore	10			Lamia	[ActorName] feels [TargetName]'s skin transition to [TargetCustom-Scale Type] scales, as they slip deeper into [ActorHis] [Dick].			
WaistCockVore	10			Lamia	[ActorName] grits their teeth as [TargetName]'s [WaistAdjective] hips transitions to their wide [TargetCustom-Scale Color] tail and begins to enter their engorged [Dick].			//Written by ZerHuskly
WaistAnalVore			Lamia		[ActorName] lays down and uses all their might to pull [TargetName]’s [WaistAdjective] hips into [ActorHis] butt, groaning in delight as [ActorHis] stretched pucker crests over the widest portion of [ActorHis] ass snack.			
WaistAnalVore	10			Lamia	[ActorName] begins to feel [TargetName]’s skin transition to [TargetCustom-Scale Type] scales as [TargetHis] hips slide into [ActorHis] butt.			
WaistAnalVore	10			Lamia	As [TargetName]'s [WaistAdjective] hips disappear into [ActorName]'s rear, [ActorHe] tries to keep up the pace as their [Anus] stretches around their [TargetCustom-Scale Color] tail to bring it into [ActorHis] bowels.			//Written by ZerHuskly
LegOralVore	10			Lamia	[ActorName] is doing their best to restrain the writhing snake tail as more and more of the [TargetCustom-Scale Pattern] disappears between [ActorHis] lips with each heavy swallow, groaning in delight as [TargetName]'s upper body begins to make [ActorHis] stomach swell with [TargetHis] form as it is gradually fed into the waiting organ.			//Written by ZerHuskly
LegOralVore	10			Lamia	[ActorName] downs [TargetName]'s tail, slurping it up like a noodle.			
LegOralVore	10			Lamia	[TargetName]'s tail slowly vanishes into the maw of [ActorName].			
LegUnbirth	10			Lamia	[TargetName]’s tail quickly disappears from view thanks to plenty of juices flowing from [ActorName]’s [Pussy].			
LegUnbirth	10			Lamia	[ActorName]'s tongue lolls out of [ActorHis] mouth as more of [ActorHis] fluids gush around [TargetName]'s tail. [ActorName] flexes their [Pussy] muscles to bring more of the serpent inside.			//Written by ZerHuskly
LegUnbirth	10			Lamia	[ActorName]'s [Pussy] consumes [TargetName]'s tail, working its way to the tip.			
LegUnbirth			Lamia		[TargetName]’s legs quickly disappear from view thanks to plenty of juices flowing from [ActorName]’s [Pussy].			
LegUnbirth			Lamia		[ActorName]'s [Pussy] consumes [TargetName]'s legs, working its way to [TargetHis] feet.			
LegCockVore	10			Lamia	[TargetName]’s tail quickly disappears from view thanks to plenty of lubricant leaking from [ActorName]’s tip.			
LegCockVore	10			Lamia	[ActorName]'s [Dick] looks as if its doubled in girth as more of [TargetName]'s [TargetCustom-Scale Color] tail is stuffed down [ActorHis] shaft.			//Written by ZerHuskly
LegCockVore	10			Lamia	No matter how much [TargetName]'s tail flails around, there's no escape from [ActorName]'s [Dick].	[TargetWillingPrey] == false		
LegCockVore			Lamia		[TargetName]’s legs quickly disappear from view thanks to plenty of lubricant leaking from [ActorName]’s tip.			
LegCockVore			Lamia		No matter how much [TargetName]'s legs flail, there's no escape from [ActorName]'s [Dick].	[TargetWillingPrey] == false		
LegCockVore			Lamia		The constricting inside of [ActorName]'s [Dick] force [TargetName]'s legs together, holding them tightly and pulling them deeper.			
LegAnalVore	10			Lamia	[ActorName] takes it slow as the hard part of [ActorHis] meal is past [ActorHim], easily drawing [TargetName]’s spasming tail into [ActorHis] [Anus] with a few contractions.			
LegAnalVore	10			Lamia	[ActorName]'s ass is starting to feel numb as another foot of [TargetName]'s coils are sucked into [ActorHis] [Anus].			//Written by ZerHuskly
LegAnalVore			Lamia		[ActorName] takes it slow as the hard part of [ActorHis] meal is past [ActorHim], easily drawing [TargetName]’s twitching legs into [ActorHis] [Anus] with a few contractions.			
FeetOralVore	10			Lamia	[ActorName] swallows the last of [TargetName]'s tail, causing [TargetHis] body to vanish from sight.			
FeetOralVore	10		Lamia	Lamia	Devouring [TargetName] gets easier and easier until just the last length of [TargetHis] [TargetCustom-Scale Color] coils are left dangling off the floor. [ActorName] straightens [ActorHis] posture, and sways [ActorHis] [WaistAdjective] hips in a firm, and swallows hard. [ActorHe] can vividly feel [TargetName]'s tail passing through until the last wiggling inches of it funnel into [ActorHis] ravenous throat. [ActorName] clacks [ActorHis] teeth shut, and finishes [TargetHis] off with one last wet glrk...			//Written by ZerHuskly
FeetOralVore	10			Lamia	With only a wriggling tailtip stuck outside [ActorHis] lips, [ActorName] takes one last swallow and seals [TargetName] away for good. Taking a gulp of fresh air, [ActorHe] slaps the top of [ActorHis] lamia-filled belly in triumph, getting used to the sensation of having their stomach stretched to its limits.			//Written by ZerHuskly
FeetOralVore	10		Lamia		[ActorName] effortlessly swallows down [TargetName]'s feet, feeling the bulge they make travel down their human half before being deposited into the tight confines of [ActorHis] snake stomach.			//Written by ZerHuskly
FeetOralVore	10			Lamia	[ActorName] finishes swallowing [TargetName]'s, which allows [TargetHis] tail to join the rest of [TargetHimself] in [ActorHis] stomach.			
FeetOralVore	10			Lamia	[ActorName] gulps down [TargetName]'s tail, and the rest of [TargetHis] body slides smoothly down [ActorName]'s slick throat and into [ActorHis] waiting stomach.			
FeetOralVore	10			Lamia	[TargetName]'s tail disappears entirely down [ActorName]'s gullet with one last powerful swallow. [TargetName] is rapidly squeezed down [ActorName]'s esophagus and soon arrives within the warm confines of [ActorHis] stomach, which welcomes [ActorHis] latest meal with a hungry gurgle.	[ActorDigestsPrey]		
FeetOralVore			Lamia		[ActorName] swallows [TargetName]'s feet, causing the last of [TargetHis] body to vanish from sight.			
FeetOralVore			Lamia		[ActorName] swallows [TargetName]'s feet, which allows [TargetHis] body to collect in [ActorHis] stomach.			
FeetOralVore			Lamia		[ActorName] gulps down [TargetName]'s feet, and the rest of [TargetHis] body slides smoothly down [ActorName]'s slick throat and into [ActorHis] waiting stomach.			
FeetOralVore			Lamia		[TargetName]'s feet disappear entirely down [ActorName]'s gullet with one last powerful swallow. [TargetName] is rapidly squeezed down [ActorName]'s esophagus and soon arrives within the warm confines of [ActorHis] stomach, which welcomes [ActorHis] latest meal with a hungry gurgle.	[ActorDigestsPrey]		
FeetUnbirth	10			Lamia	[TargetName]’s tail vanishes from view, and soon after [TargetHis] entire body slides through [ActorName]'s Cervix and into [ActorHis] womb.			
FeetUnbirth	10		Lamia		As [TargetName]'s feet disappear into [ActorName]'s [Pussy] with a wet squelch, [ActorHe] sighs in satisfaction as they feel the bulge of their prey travel deeper down the length of their tail into [ActorHis] waiting womb.			//Written by ZerHuskly
FeetUnbirth	10		Lamia	Lamia	[ActorName] assists the last of [TargetName]'s tail into [ActorHis] needy [Pussy], pushing the last of it inside where it joins the bulge that the rest of [TargetHis] body makes in [ActorHis] coils. Overcome with lust, [ActorName] fingers [ActorHimself] and toys with their [Clit], quickly bringing themselves to orgasm.			//Written by ZerHuskly
FeetUnbirth	10			Lamia	[ActorName]'s [Pussy] gapes wide open as [ActorHis] inner muscles pull the last stretch of [TargetName] inside, the tip of their tail disappearing past [ActorHis] cervix sealing up for good.			//Written by ZerHuskly
FeetUnbirth			Lamia		[TargetName]’s feet vanish from view, and soon after [TargetHis] entire body slides through [ActorName]'s Cervix and into [ActorHis] womb.			
FeetCockVore	10			Lamia	[TargetName]’s tail slips from view, the bulge they make in [ActorName]’s shaft descends down into their growing [Balls].			
FeetCockVore	10			Lamia	[ActorName]'s [Dick] slurps up the tip of [TargetName]'s tail, the lump traveling on the underside of the shaft and finally deposited into [ActorHis] [Balls] with the rest of the Lamia.			//Written by ZerHuskly
FeetCockVore			Lamia		[TargetName]’s feet slip from view, the bulge they make in [ActorName]’s shaft descends down into their growing [Balls].			
FeetAnalVore	10			Lamia	Only [TargetName]’s tail tip remains outside, but it swiftly disappears between [ActorName]’s asscheeks as they pull it inside.			
FeetAnalVore	10		Lamia		[ActorName]'s [Anus] slowly sucks in [TargetName]'s feet, where they make a tight turn and join the rest of [TargetHis] body sinking deeper into the [ActorCustom-Scale Color] tail. [ActorName] smacks [ActorHis] butt in satisfaction and slithers off to find more prey.			//Written by ZerHuskly
FeetAnalVore	10		Lamia	Lamia	With a tight clench, the last of [TargetName]'s [TargetCustom-Scale Color] tail disappears into [ActorName]'s winking asshole. Making use of the large bulge that [TargetName] makes in [ActorHis] tail as a seat,  [ActorName] takes a short break to massage their sore butt.			//Written by ZerHuskly
FeetAnalVore	10			Lamia	[ActorName]'s overworked [Anus] lazily envelops the tip of [TargetName]'s snake tail to seal it away in [ActorHis] winding guts.			//Written by ZerHuskly
FeetAnalVore	10			Lamia	With a final contraction, [TargetName]'s tail is pulled completely inside of [ActorName]'s ass, [ActorHis] anal ring squeezing tightly closed as the last of their meal disappears from view.			
FeetAnalVore			Lamia		Only [TargetName]’s feet remain outside, but those swiftly disappear between [ActorName]’s asscheeks as they pull them inside.			
FeetAnalVore			Lamia		With a final contraction, [TargetName]'s feet are pulled completely inside of [ActorName]'s ass, [ActorHis] anal ring squeezing tightly closed as the last of their meal disappears from view.			
BellySizeDescription	9		Lamia		Their winding [ActorCustom-Scale Color] tail is swollen and bloated with the squirming forms of numerous victims stewing about inside.	s.Actor.VoreController.BellySize() > 3.5f		
BellySizeDescription	8		Lamia		Their tail is distended with several writhing bulges along its entire length that distort the [ActorCustom-Scale Pattern] pattern adorning it.	s.Actor.VoreController.BellySize() > 3		// Written by ZerHuskly
BellySizeDescription	7		Lamia		They have two distinct bulges in their tail that contain the outlines of people shifting about in the tight confines.	s.Actor.VoreController.BellySize() > 2.5f		// Written by ZerHuskly
BellySizeDescription	6		Lamia		They have a large lump in their [ActorCustom-ScaleColor] tail that might have two people stuck inside.	s.Actor.VoreController.BellySize() > 2		// Written by ZerHuskly
BellySizeDescription	5		Lamia		The lump in their tail might have more than just a single person stuffed inside.	s.Actor.VoreController.BellySize() > 1.25f		// Written by ZerHuskly
BellySizeDescription	4		Lamia		They have a distinct bulge of a person bloating out their tail.	s.Actor.VoreController.BellySize() > .95f		// Written by ZerHuskly
BellySizeDescription	3		Lamia		The lump in their tail has shrunken and is no longer person sized.	s.Actor.VoreController.BellySize() > .75f		// Written by ZerHuskly
BellySizeDescription	2		Lamia		The bulge in their tail is beginning to smooth out.	s.Actor.VoreController.BellySize() > .5f		// Written by ZerHuskly
BellySizeDescription	1		Lamia		The bump in their tail is hardly noticeable anymore.	s.Actor.VoreController.BellySize() > .25f		// Written by ZerHuskly
BellySizeDescription	0		Lamia		Its impossible to tell if they ate anyone at this point, whatever is left of their prey isn't even putting a dent in their tail.			// Written by ZerHuskly
								
								
//Sex Actions								
SwitchPositionToScissoring			Lamia		[ActorName] pulls [TargetName] onto [ActorHis] lap, and presses their [Pussies] against each other.			
