Type	Priority	Fallthrough	ActorRace	TargetRace	Text	Conditional	Success	Notes
Notes Found Here					In case this gets messed up, you can view a read only copy here			
								
//Self Actions								
Rest		0.75	Sergal		[ActorName] slept in [ActorHis] bed.			
Rest		0.4	Sergal		[ActorName] slept in [ActorHis] bed and dreamed of being with [ActorHis] friends.			
Strip			Sergal		[ActorName] removes [ActorHis] pants, leaving [ActorHim] naked.	[ActorNude]		
Strip			Sergal		[ActorName] removes [ActorHis] top, leaving [ActorHis] chest exposed.	[ActorInUnderwear]		
Reclothe	2		Sergal		[ActorName] puts [ActorHis] bottoms back on, covering [ActorHis] lower half.	[ActorInUnderwear]		
Reclothe	1		Sergal		[ActorName] puts [ActorHis] pants back on, covering [ActorHis] legs.	[ActorInUnderwear]		
Reclothe			Sergal		[ActorName] puts [ActorHis] top back on.	[ActorFullyClothed]		
Reclothe			Sergal		[ActorName] is now fully clothed again.	[ActorFullyClothed]		
StomachGrowl			Sergal		[ActorName]'s stomach growls, letting [ActorHim] know that it's time to find some food.			
StomachGrowl			Sergal		[ActorName]'s gut quietly growls, trying to help notify [ActorHim] that [ActorHe] should think about food.			
StomachGrowl			Sergal		[ActorName]'s belly grumbles uncomfortably, reminding [ActorHim] to visit the cafeteria sometime soon.			Added by Flame_Valxsarion
StomachGrowl			Sergal		[ActorName]'s stomach rumbles angrily and [ActorHe] make[SIfActorSingular] a note to add lunch to [ActorHis] schedule.			Added by Flame_Valxsarion
StomachGrowl	1		Sergal		[ActorName]'s stomach growls painfully, causing [ActorHim] to wince. [ActorHe] look[SIfActorSingular] down at [ActorHis] belly apologetically and promises to feed somebody to it soon.	[ActorCanVore] && s.Actor.Personality.PredWillingness > .6f		Added by Flame_Valxsarion
StomachGrowl	1		Sergal		[ActorName]'s belly growls aggressively alerting [ActorHim] to a dire hunger. [ActorHe] look[SIfActorSingular] around at the people nearby and wonder[SIfActorSingular] which one would taste the best.	[ActorCanVore] && s.Actor.Personality.PredWillingness > .6f		Added by Flame_Valxsarion
StomachGrowl	1		Sergal		[ActorName] watches the people walk by and rubs [ActorHis] angry stomach, wondering which one [ActorHe] could gobble down to satisfy [ActorHis] immense hunger.	[ActorCanVore] && s.Actor.Personality.PredWillingness > .6f		Added by Flame_Valxsarion
StomachGrowl	1		Sergal		A faint groaning from [ActorName]'s hungry stomach causes [ActorHim] to look around and take stock of the people nearby.  "Who's the lucky one going down my gullet today, hmm?" [ActorName] mutters to [ActorHimself] conspiratorially.	[ActorCanVore] && s.Actor.Personality.PredWillingness > .6f		Added by Flame_Valxsarion
Scream	1		Sergal		Someone help me please! Someone's holding me and there is a predatory look in their eyes! screamed [ActorName].	[VoreKnowledge]		
Scream	1		Sergal		Please help me! I think I'm going to be eaten, and I really don't want to be! yelled [ActorName].	[VoreKnowledge]		
Scream			Sergal		Someone help me please! I've been grabbed and I don't know what they are planning to do to me! yelled [ActorName].			
Scream			Sergal		Let go of me, you're really creeping me out with that look in your eyes! screamed [ActorName].			
Scream			Sergal		[ActorName] screamed for help!			
Scream			Sergal		No, please! screamed [ActorName] "Please don't eat me! I'll do anything!"			
Masturbate			Sergal		[ActorName] rubs [ActorHis] fingers across the area of [ActorHis] [Pussy] over the fabric of [ActorHis] clothes, building up heat.	[ActorHasVagina]		
Masturbate			Sergal		[ActorName] strokes and penetrates [ActorHis] [Pussy] with [ActorHis] fingers, giving in to pleasure.	[ActorNude] && [ActorHasVagina]		
Masturbate			Sergal		[ActorName] gropes [ActorHis] [Dick] and [Pussy] over the fabric of [ActorHis] clothes, building up heat.	[ActorHasVagina] && [ActorHasDick]		
Masturbate			Sergal		[ActorName] strokes [ActorHis] [Dick] and strokes and penetrates [ActorHis] [Pussy] with [ActorHis] fingers, giving in to pleasure.	[ActorNude] && [ActorHasVagina] && [ActorHasDick]		
Masturbate			Sergal		[ActorName] massages [ActorHis] [Dick] through [ActorHis] pants, satisfying, but not quite the same effect as naked.	[ActorHasDick]		
Masturbate			Sergal		[ActorName] holds [ActorHis] [Dick] in [ActorHis] hand and strokes it, driving [ActorHis] arousal.	[ActorNude] && [ActorHasDick]		
Orgasm			Sergal		[ActorName] cries out in orgasmic pleasure, fluid gushing out of [ActorHis] [Pussy].	[ActorNude] && [ActorHasVagina]		
Orgasm			Sergal		[ActorName] screams in ecstasy, [ActorHis] legs twitching wildly.	[ActorHasVagina]		
Orgasm			Sergal		[ActorName] convulses wildly as [ActorHis] hips buck and [ActorHis] nectar flows out.	[ActorNude] && [ActorHasVagina]		
Orgasm			Sergal		[ActorName] cries out in orgasmic pleasure, fluid gushing out of [ActorHis] [Pussy] and soaking [ActorHis] pants with [ActorHis] warm juices.	[ActorFullyClothed] && [ActorHasVagina]		
Orgasm			Sergal		[ActorName] convulses wildly as [ActorHis] hips buck and [ActorHis] nectar flows out, drenching [ActorHis] pants.	[ActorFullyClothed] && [ActorHasVagina]		
Orgasm			Sergal		[ActorName] cries out in orgasmic pleasure, fluid gushing out of [ActorHis] [Pussy], soaking [ActorHis] pants.	[ActorInUnderwear] && [ActorHasVagina]		
Orgasm			Sergal		[ActorName] convulses wildly as [ActorHis] hips buck and [ActorHis] nectar flows out, drenching [ActorHis] pants.	[ActorInUnderwear] && [ActorHasVagina]		
Orgasm			Sergal		[ActorName] cries out as [ActorHis] cum sprays out.	[ActorNude] && [ActorHasDick]		
Orgasm			Sergal		[ActorName] grunts as [ActorHis] [Dick] dumps its load.	[ActorNude] && [ActorHasDick]		
Orgasm			Sergal		[ActorName] groans in pleasure as [ActorHe] releases [ActorHis] hot, sticky load.	[ActorNude] && [ActorHasDick]		
Orgasm			Sergal		[ActorName] grunts as [ActorHis] [Dick] dumps its load into [ActorHis] pants, leaving a hot, sticky mess in them.	[ActorFullyClothed] && [ActorHasDick]		
Orgasm			Sergal		[ActorName] groans in pleasure as [ActorHe] releases [ActorHis] hot load, soaking [ActorHis] pants with sticky cum.	[ActorFullyClothed] && [ActorHasDick]		
Orgasm			Sergal		[ActorName] groans in pleasure as [ActorHe] releases [ActorHis] load in [ActorHis] pants.	[ActorInUnderwear] && [ActorHasDick]		
Orgasm			Sergal		[ActorName] cries out as [ActorHis] cum sprays out of [ActorHis] [Dick] and into [ActorHis] pants.	[ActorInUnderwear] && [ActorHasDick]		
FinishDigestion			Sergal		[ActorName] finishes digesting [ActorHis] meal.			
FinishDigestion			Sergal		[ActorName] pats [ActorHis] belly in satisfaction as [ActorHis] meal finishes digesting.			
FinishDigestion			Sergal		[ActorName] feels the last of [ActorHis] meal leaving their stomach, thoughts of their next meal plaguing their thoughts.			
FinishDigestion			Sergal		[ActorName] grunts in happiness as [ActorHis] stomach finishes digesting its prey, making room for more.			
FinishDigestion			Sergal		[ActorName] lets out a small burp as the last bits of nutritious mush that were once another person finish being digested by [ActorHis] stomach, nourishing [ActorHis] body.			
FinishDigestion			Sergal		[ActorName]'s stomach gurgles as the last of [ActorHis] satisfying meal empties into [ActorHis] intestines as a nutritious slurry.			
SawCheating			Sergal		[ActorName] paid no attention to the fact that [ActorHis] significant other was flirting with another person.			
SawAttemptedCheating			Sergal		[ActorName] paid no attention to the fact that [ActorHis] significant other was flirting with another person.			
SawSORejectCheating			Sergal		[ActorName] saw someone else flirting with [ActorHis] significant other, but [ActorHe] did not care.			
//Sergals tend to be polyamorous, and they don't really care if someone cheats on them.								
RubOwnBelly			Sergal		[ActorName] rubs [ActorHis] own big belly, feeling the bulges of multiple prey within.	[ActorBellySize] >= 1.5f		
RubOwnBelly			Sergal		[ActorName] gently rubs [ActorHis] own bulging gut, stretching to hold the people within it.	[ActorBellySize] >= 1.5f		
RubOwnBelly			Sergal		[ActorName] rubs [ActorHis] own big belly, feeling the bulges of the living prey within.	[ActorBellySize] >= 1 && [ActorBellySize] < 1.5f && [ActorHasLivingBellyPrey]		
RubOwnBelly			Sergal		[ActorName] rubs [ActorHis] own big belly, savoring [ActorHis] prey's movements in their gut.	[ActorBellySize] >= 1 && [ActorBellySize] < 1.5f && [ActorHasLivingBellyPrey]		
RubOwnBelly			Sergal		[ActorName] gently rubs [ActorHis] hands against [ActorHis] own bulging gut.	[ActorBellySize] >= 1 && [ActorBellySize] < 1.5f		
RubOwnBelly			Sergal		[ActorName] rubs [ActorHis] own belly, feeling the bulges of the melting prey within.	[ActorBellySize] >= .5f && [ActorBellySize] < 1		
RubOwnBelly			Sergal		[ActorName] gently rubs [ActorHis] hands against [ActorHis] bulging, but slowly shrinking gut.	[ActorBellySize] >= .5f && [ActorBellySize] < 1		
RubOwnBelly			Sergal		[ActorName] rubs [ActorHis] own belly, feeling the mostly melted prey within.	[ActorBellySize] < .5f		
RubOwnBelly			Sergal		[ActorName] gently rubs [ActorHis] hands against [ActorHis] slightly swollen gut.	[ActorBellySize] < .5f		
TreatWounds			Sergal		[ActorName] rubs some medical gel on [ActorHis] coat, soothing the burns on [ActorHis] skin.			
Burp			Sergal		[ActorName] pats their stomach before releasing an audible belch, blushing with a soft 'Excuse me'			
Burp			Sergal		[ActorName] lets out a hearty belch, smiling as the expulsion carried up a small hint of [ActorHis] meal's flavor.			
Burp			Sergal		[ActorName] burps loudly, and then sighs softly in satisfaction.			
Burp			Sergal		[ActorName] lets out a small burp, and then blushes slightly and giggles to themselves.			
								
								
//Interactions								
Meet			Sergal		[ActorName] cheerfully introduced [ActorHimself] to [TargetName].			
Meet			Sergal		[ActorName] met [TargetName] for the first time.			
HostileMeet			Sergal		[ActorName] rushed [ActorHimself] through an introduction to [TargetName], seeming to have some ulterior motive in mind.			
Talk	2		Sergal		[ActorName] talked with [TargetName].		Yes	
Talk	1	0.85	Sergal	Human	[ActorName] talked with [TargetName], trying to calculate whether [TargetName] would fit in [ActorHis] jaws or not.	s.Actor.Personality.PredWillingness > .6f	Yes	
Talk	1	0.85	Human	Sergal	[ActorName] talked with [TargetName], feeling somewhat threatened by the large jaws above [ActorHim].	[VoreKnowledge]	Yes	
Talk			Sergal		[TargetName] refused to talk with [ActorName].		No	
AskWait			Sergal		[ActorName] convinced [TargetName] to wait where they are.		Yes	
AskWait			Sergal		[TargetName] refused to wait around for [ActorName].		No	
Flirt			Sergal		[ActorName] flirted with [TargetName].	[ActorFullyClothed] || s.Actor.Personality.SexDrive < Rand.NextFloat(0, 1)	Yes	
Flirt			Sergal		[ActorName] flirted with [TargetName], giving a quick spin to show off [ActorHis] underwear.	[ActorInUnderwear]	Yes	
Flirt			Sergal		[ActorName] flirted with [TargetName], enjoying the attention on [ActorHis] nude body.	[ActorNude]	Yes	
Flirt			Sergal		[ActorName] flirted with [TargetName], Commenting on how nicely [TargetName]'s underwear hugs [TargetHis] body.	[TargetInUnderwear]	Yes	Added by Flame_Valxsarion
Flirt			Sergal		[ActorName] flirted with [TargetName], enjoying the way [TargetName] flaunts [TargetHis] nude body.	[TargetNude]	Yes	Added by Flame_Valxsarion
Flirt			Sergal	Sergal	[TargetName] rejected the flirting of [ActorName].		No	
Flirt			Sergal	Human	"I'm not sure how to take that, [ActorName]," [TargetName] says.		No	
FriendlyHug			Sergal		[ActorName] gave [TargetName] a quick, friendly hug.	[ActorNude] == false	Yes	
FriendlyHug			Sergal		[TargetName] was unsure about being hugged by the nude [ActorName], but decided to allow it.	[ActorNude] && [TargetRomanticTowardActor] < .25f	Yes	
FriendlyHug			Sergal		[TargetName] was happy to be hugged by the nude [ActorName], but slightly disappointed it was only a friendly hug.	[ActorNude] && [TargetLikesActorGender]	Yes	
FriendlyHug			Sergal		[TargetName] hugs [ActorName], squishing [ActorHis] wriggling gut between them.	[ActorBellySize] >= 1 && [ActorBellySize] < 1.5f && [ActorHasLivingBellyPrey]	Yes	
FriendlyHug			Sergal		[TargetName] rejected a friendly hug from [ActorName].		No	
Hug			Sergal		[ActorName] squeezes [TargetName] tightly in a romantic hug, and rubs [ActorHis] cheek against [TargetName]'s cheek.	[ActorNude] == false	Yes	
Hug			Sergal		[ActorName] squeezes [TargetName] tightly in a romantic hug, and rubs [ActorHis] hands up and down [TargetName]'s back.	[ActorNude] == false	Yes	
Hug			Sergal		[ActorName] squeezes [TargetName] tightly in a romantic hug, and rubs [ActorHis] nude body against [TargetHim].	[ActorNude]	Yes	
Hug			Sergal		[TargetName] hugs [ActorName], squishing [ActorHis] wriggling gut between them, enjoying the feeling of closeness as they squeeze together.	[ActorBellySize] >= 1 && [ActorBellySize] < 1.5f && [ActorHasLivingBellyPrey]	Yes	
Hug			Sergal		[TargetName] rejected a romantic hug from [ActorName].		No	
Kiss			Sergal		[ActorName] kissed [TargetName].		Yes	
Kiss			Sergal		[TargetName] refused to be kissed by [ActorName].		No	
ComplimentAppearance			Sergal		Ah, you're looking quite sexy there, [TargetName] [ActorName] says.		Yes	
ComplimentAppearance			Sergal		Looking very good, [TargetName] [ActorName] can't help but comment on [TargetHis] appearance.		Yes	
ComplimentAppearance			Sergal		[ActorName] starts to say how good they think [TargetName] looks, but [TargetName] cuts them off and doesn't want to hear it at the moment.		No	
AskThemToStrip			Sergal		[ActorName] asks [TargetName] to strip off some of their clothes, and [TargetHe] seems to agree.		Yes	
AskThemToStrip			Sergal		[TargetName], why don't you strip off some of those clothes?  Then perhaps we can do something fun. [ActorName] convinces [TargetName].		No	
AskThemToStrip			Sergal		[ActorName] tries to convince [TargetName] to strip, but they don't seem comfortable enough to do that at the moment.		No	
AskOut			Sergal		[ActorName] and [TargetName] are now dating.		Yes	
AskOut			Sergal		[ActorName] and [TargetName] are now going out.		Yes	Added by Flame_Valxsarion
AskOut			Sergal	Human	[TargetName] says, "I was waiting for you to offer!" and the two start dating.		Yes	Added by Flame_Valxsarion
AskOut			Sergal		[TargetName] gives [ActorName] a kiss and agrees to go out with them.		Yes	Added by Flame_Valxsarion
AskOut			Sergal		[TargetName] pulls [ActorName] into an affectionate hug as the two start dating.		Yes	Added by Flame_Valxsarion
AskOut			Sergal		[TargetName] rejects [ActorName]'s dating invitation.		No	
AskOut			Sergal		[ActorName] builds up the courage to ask out [TargetName], but [ActorHe] was sadly shot down.		No	Added by Flame_Valxsarion
AskOut			Sergal	Human	[ActorName] asked [TargetName] out. "With a creature like you? No!" [TargetName] says.		No	Added by Flame_Valxsarion
AskOut			Sergal		[ActorName] went to ask [TargetName] out, but [TargetHe] rejected the offer.		No	Added by Flame_Valxsarion
BreakUp			Sergal		[ActorName] told [TargetName] that their relationship is over.			
StartSex			Sergal		[TargetName] is now having sex with [ActorName].		Yes	
StartSex			Sergal		[TargetName] refused to have sex with [ActorName].		No	
OutragedAtSex			Sergal		Seeing [TargetName] having sex with another person, [ActorName] turns away, declaring their relationship over.			
OutragedAtSex			Sergal		[ActorName] watches as [TargetName] has sex with another person, wondering who to date now.			
SpitUpPrey			Sergal		[ActorName] voluntarily spits [TargetName] back out, leaving them a little messy but still alive. [TargetName] partially forgives them.	[TargetFriendshipTowardActor] < -.19f && [ActorIsBeingEaten] == false		
SpitUpPrey			Sergal		[ActorName] voluntarily spits [TargetName] back out, leaving them a little messy but still alive.	[ActorIsBeingEaten] == false		
SpitUpPrey			Sergal		[ActorName] voluntarily spits [TargetName] back out, putting them into someone else's body. [TargetName] partially forgives them.	[TargetFriendshipTowardActor] < -.19f && [ActorIsBeingEaten]		
SpitUpPrey			Sergal		[ActorName] voluntarily spits [TargetName] back out, putting them into someone else's body.	[ActorIsBeingEaten]		
BirthPrey			Sergal		[ActorName] voluntarily births [TargetName] back out, leaving them a little sticky but alive. [TargetName] partially forgives them.	[TargetFriendshipTowardActor] < -.19f && [ActorIsBeingEaten] == false		
BirthPrey			Sergal		[ActorName] voluntarily births [TargetName] back out, leaving them a little sticky but alive.	[ActorIsBeingEaten] == false		
BirthPrey			Sergal		[ActorName] voluntarily births [TargetName] back out, leaving them a little sticky but not free, as they are now within someone else. [TargetName] partially forgives them.	[TargetFriendshipTowardActor] < -.19f && [ActorIsBeingEaten]		
BirthPrey			Sergal		[ActorName] voluntarily births [TargetName] back out, leaving them a little sticky but not free, as they are now within someone else.	[ActorIsBeingEaten]		
ReleaseCockPrey			Sergal		[ActorName] voluntarily cums [TargetName] back out, leaving them a little sticky but alive. [TargetName] partially forgives them.	[TargetFriendshipTowardActor] < -.19f && [ActorIsBeingEaten] == false		
ReleaseCockPrey			Sergal		[ActorName] voluntarily cums [TargetName] back out, leaving them a little sticky but alive.	[ActorIsBeingEaten] == false		
ReleaseCockPrey			Sergal		[ActorName] voluntarily cums [TargetName] back out, leaving them a little sticky but not free, as they are now within someone else. [TargetName] partially forgives them.	[TargetFriendshipTowardActor] < -.19f && [ActorIsBeingEaten]		
ReleaseCockPrey			Sergal		[ActorName] voluntarily cums [TargetName] back out, leaving them a little sticky but not free, as they are now within someone else.	[ActorIsBeingEaten]		
PreyEscapes			Sergal		[TargetName] manages to struggle their way out of [ActorName].			
PreyEscapes			Sergal		[TargetName] manages to struggle their way out of [ActorName] and ends up in [PredatorOfActor].	[ActorIsBeingEaten]		
Compliment			Sergal		[ActorName] compliments [TargetName].		Yes	
Compliment			Sergal		[ActorName] tells [TargetName] they like their hair.		Yes	
Compliment			Sergal		[ActorName] tells [TargetName] that [ActorHe] think[SIfActorSingular] they are nice.		Yes	
Compliment			Sergal		[ActorName] compliments [TargetName], but [TargetName] feels [ActorName]'s words are hollow.		No	
Compliment			Sergal		[ActorName] compliments [TargetName]'s predatory abilities.	[TargetBellySize] >= 1.0f || [TargetBallsSize] >= 1.0f	Yes	
AskIfSingle			Sergal		[ActorName] asks if [TargetName] is single, and [TargetName] tells [ActorHim] that [TargetHeIs] dating someone.	s.Target.Romance.IsDating	Yes	
AskIfSingle			Sergal		[ActorName] asks if [TargetName] is single, and [TargetName] tells [ActorHim] that [TargetHeIs] single.	s.Target.Romance.IsDating == false	Yes	
AskIfSingle			Sergal		[ActorName] asks if [TargetName] is single, but [TargetName] refuses to say.		No	
Push			Sergal		[ActorName] bumps into [TargetName] aggressively, annoying them.			
Push			Sergal		[ActorName] pushes [TargetName], almost knocking them down.			
Insult			Sergal		[ActorName] ridicules [TargetName]'s hair.			
Insult			Sergal		[ActorName] makes fun of [TargetName]'s body.			
Insult			Sergal		[ActorName] insults [TargetName]'s intelligence.			
Insult			Sergal		[ActorName] calls [TargetName] ugly.			
RubBelly			Sergal		[ActorName] rubs [TargetName]'s big belly, feeling the bulges of multiple prey within.	[TargetBellySize] >= 1.5f	Yes	
RubBelly			Sergal		[ActorName] gently rubs [ActorHis] hands against [TargetName]'s bulging gut, stretching to hold the people within it.	[TargetBellySize] >= 1.5f	Yes	
RubBelly			Sergal		[ActorName] rubs [TargetName]'s big belly, feeling the bulges of the living prey within.	[TargetBellySize] >= 1 && [TargetBellySize] < 1.5f && [TargetHasLivingBellyPrey]	Yes	
RubBelly			Sergal		[ActorName] massages [TargetName]'s bulging belly, feeling their live prey squirming about inside.	[TargetBellySize] >= 1 && [TargetBellySize] < 1.5f && [TargetHasLivingBellyPrey]	Yes	
RubBelly			Sergal		[ActorName] gently rubs [ActorHis] hands against [TargetName]'s bulging gut.	[TargetBellySize] >= 1 && [TargetBellySize] < 1.5f	Yes	
RubBelly			Sergal		[ActorName] rubs [TargetName]'s belly, feeling the bulges of the melting prey within.	[TargetBellySize] >= .5f && [TargetBellySize] < 1	Yes	
RubBelly			Sergal		[ActorName] gently rubs [ActorHis] hands against [TargetName]'s bulging, but slowly shrinking gut.	[TargetBellySize] >= .5f && [TargetBellySize] < 1	Yes	
RubBelly			Sergal		[ActorName] rubs [TargetName]'s belly, feeling the mostly melted prey within.	[TargetBellySize] < .5f	Yes	
RubBelly			Sergal		[ActorName] gently rubs [ActorHis] hands against [TargetName]'s slightly swollen gut.	[TargetBellySize] < .5f	Yes	
RubBelly			Sergal		[TargetName] refuses to let [ActorName] rub [TargetHis] belly.		No	
RubBalls			Sergal		[ActorName] rubs [TargetName]'s plump sack, feeling the outline of multiple prey within.	[TargetBallsSize] >= 1.5f	Yes	
RubBalls			Sergal		[ActorName] gently rubs [ActorHis] hands against [TargetName]'s bulging orbs, stretching to hold the people within it.	[TargetBallsSize] >= 1.5f	Yes	
RubBalls			Sergal		[ActorName] rubs [TargetName]'s big nutsack, feeling the outline of the living prey within.	[TargetBallsSize] >= 1 && [TargetBallsSize] < 1.5f && [TargetHasLivingBallsPrey]	Yes	
RubBalls			Sergal		[ActorName] gently rubs [ActorHis] hands against [TargetName]'s bulging orbs.	[TargetBallsSize] >= 1 && [TargetBallsSize] < 1.5f	Yes	
RubBalls			Sergal		[ActorName] rubs [TargetName]'s scrotum, feeling the liquefying prey within.	[TargetBallsSize] >= .5f && [TargetBallsSize] < 1	Yes	
RubBalls			Sergal		[ActorName] gently rubs [ActorHis] hands against [TargetName]'s inflated, but slowly shrinking scrotum.	[TargetBallsSize] >= .5f && [TargetBallsSize] < 1	Yes	
RubBalls			Sergal		[ActorName] rubs [TargetName]'s sack, feeling the almost liquefied prey within.	[TargetBallsSize] < .5f	Yes	
RubBalls			Sergal		[ActorName] gently rubs [ActorHis] hands against [TargetName]'s diminishing scrotum.	[TargetBallsSize] < .5f	Yes	
RubBalls			Sergal		[TargetName] refuses to let [ActorName] rub [TargetHis] balls.		No	
DoneFollowingYou			Sergal		[TargetName], I think I've followed you for long enough, I've got something else I need to do. says [ActorName].			
DoneFollowingYou			Sergal		I've been following you around for quite a while, [TargetName], I really need to get going now. Bye! says [ActorName].			
DoneFollowingYou			Sergal		It's been fun hanging around with you for a while, [TargetName], but I have some stuff to do. See you later! says [ActorName], waving goodbye before walking away.	[ActorFriendshipTowardTarget] > .5f		
DoneFollowingYou			Sergal		[TargetName], I've enjoyed our time together, but I really need to go take care of some things. Bye! says [ActorName].	[ActorFriendshipTowardTarget] > .5f		
VoreTeased			Sergal		I hear you, [TargetName], and I'm headed your way.  Hopefully I make it to you first. says [ActorName]			
								
//Relating to Body Parts								
HeadDescription				Sergal	[TargetName]'s pointed head has [TargetEyeColor] eyes, [TargetHairColor] pointed ears, and [TargetHairLength] [TargetHairStyle] [TargetHairColor] hair.			
TorsoDescription				Sergal	[ActorHisCapitalized] white belly fades into [TargetHis] [TargetHairColor] back.			
TorsoDescription				SergalSouthern	[ActorHisCapitalized] cream belly fades into [TargetHis] [TargetHairColor] back.			
TorsoDescription	1			Sergal	[ActorHisCapitalized] top completely covers [TargetHis] torso.	[TargetFullyClothed]		
TorsoDescription	1			Sergal	[ActorHisCapitalized] top completely covers [TargetHis] chest.	[TargetFullyClothed]		
WaistDescription				Sergal	Clothing completely covers from [TargetHis] waist down.			
WaistDescription				Sergal	[!TargetHis] bottoms cover [TargetHis] bottom half			
WaistDescription	1			Sergal	[ActorHisCapitalized] bottom half is fully visible.	[TargetNude]		
WaistDescription	1			Sergal	[!TargetHis] legs are fully visible.	[TargetNude]		
